<svg width="24" height="23" viewBox="0 0 24 23" fill="none" xmlns="http://www.w3.org/2000/svg">
<path d="M16.5 0H7.5C3.3585 0 0 3.21856 0 7.1875V15.8125C0 19.7814 3.3585 23 7.5 23H16.5C20.6415 23 24 19.7814 24 15.8125V7.1875C24 3.21856 20.6415 0 16.5 0ZM21.75 15.8125C21.75 18.5869 19.395 20.8438 16.5 20.8438H7.5C4.605 20.8438 2.25 18.5869 2.25 15.8125V7.1875C2.25 4.41313 4.605 2.15625 7.5 2.15625H16.5C19.395 2.15625 21.75 4.41313 21.75 7.1875V15.8125Z" fill="#246BFD"/>
<path d="M12.0117 5.76318C8.69822 5.76318 6.01172 8.33775 6.01172 11.5132C6.01172 14.6886 8.69822 17.2632 12.0117 17.2632C15.3252 17.2632 18.0117 14.6886 18.0117 11.5132C18.0117 8.33775 15.3252 5.76318 12.0117 5.76318ZM12.0117 15.1069C9.94472 15.1069 8.26172 13.4941 8.26172 11.5132C8.26172 9.53087 9.94472 7.91943 12.0117 7.91943C14.0787 7.91943 15.7617 9.53087 15.7617 11.5132C15.7617 13.4941 14.0787 15.1069 12.0117 15.1069Z" fill="#246BFD"/>
<path d="M18.4324 6.10317C18.8751 6.10317 19.2339 5.75926 19.2339 5.33503C19.2339 4.9108 18.8751 4.56689 18.4324 4.56689C17.9897 4.56689 17.6309 4.9108 17.6309 5.33503C17.6309 5.75926 17.9897 6.10317 18.4324 6.10317Z" fill="#246BFD"/>
</svg>
