<svg style="opacity: 0.2;" width="1440" height="900" viewBox="0 0 1440 900" fill="none" xmlns="http://www.w3.org/2000/svg">
<g clip-path="url(#clip0_1140_8669)">
<g style="mix-blend-mode:overlay" opacity="0.8" filter="url(#filter0_f_1140_8669)">
<circle cx="120" cy="120" r="240" fill="url(#paint0_radial_1140_8669)"/>
</g>
<g style="mix-blend-mode:overlay" opacity="0.8" filter="url(#filter1_f_1140_8669)">
<circle cx="1320" cy="780" r="240" fill="url(#paint1_radial_1140_8669)"/>
</g>
</g>
<defs>
<filter id="filter0_f_1140_8669" x="-240" y="-240" width="720" height="720" filterUnits="userSpaceOnUse" color-interpolation-filters="sRGB">
<feFlood flood-opacity="0" result="BackgroundImageFix"/>
<feBlend mode="normal" in="SourceGraphic" in2="BackgroundImageFix" result="shape"/>
<feGaussianBlur stdDeviation="60" result="effect1_foregroundBlur_1140_8669"/>
</filter>
<filter id="filter1_f_1140_8669" x="998.452" y="458.452" width="643.097" height="643.097" filterUnits="userSpaceOnUse" color-interpolation-filters="sRGB">
<feFlood flood-opacity="0" result="BackgroundImageFix"/>
<feBlend mode="normal" in="SourceGraphic" in2="BackgroundImageFix" result="shape"/>
<feGaussianBlur stdDeviation="40.7742" result="effect1_foregroundBlur_1140_8669"/>
</filter>
<radialGradient id="paint0_radial_1140_8669" cx="0" cy="0" r="1" gradientUnits="userSpaceOnUse" gradientTransform="translate(176.912 66.8067) rotate(70.7311) scale(293.512)">
<stop stop-color="#EF88ED"/>
<stop offset="0.544612" stop-color="#7269E3"/>
<stop offset="1" stop-color="#8350DB"/>
</radialGradient>
<radialGradient id="paint1_radial_1140_8669" cx="0" cy="0" r="1" gradientUnits="userSpaceOnUse" gradientTransform="translate(1376.91 726.807) rotate(70.7311) scale(293.512)">
<stop stop-color="#EF88ED"/>
<stop offset="0.544612" stop-color="#7269E3"/>
<stop offset="1" stop-color="#8350DB"/>
</radialGradient>
<clipPath id="clip0_1140_8669">
<rect width="1440" height="900" fill="white"/>
</clipPath>
</defs>
</svg>
