<svg width="1440" height="1864" viewBox="0 0 1440 1864" fill="none" xmlns="http://www.w3.org/2000/svg">
<g opacity="0.33">
<g filter="url(#filter0_f_1919_21622)">
<ellipse cx="-23.5221" cy="108.645" rx="160.341" ry="134.125" transform="rotate(-4.0801 -23.5221 108.645)" fill="#B4169F" fill-opacity="0.61"/>
</g>
<g filter="url(#filter1_f_1919_21622)">
<ellipse cx="942.309" cy="250.156" rx="160.341" ry="134.125" transform="rotate(-4.0801 942.309 250.156)" fill="#B4169F" fill-opacity="0.61"/>
</g>
<g filter="url(#filter2_f_1919_21622)">
<ellipse cx="96.7298" cy="65.2477" rx="98.4272" ry="82.3965" transform="rotate(-4.0801 96.7298 65.2477)" fill="#B4169F"/>
</g>
<g filter="url(#filter3_f_1919_21622)">
<ellipse cx="1015.2" cy="535.744" rx="139.703" ry="116.759" transform="rotate(-4.0801 1015.2 535.744)" fill="#2CEFFF"/>
</g>
<g filter="url(#filter4_f_1919_21622)">
<ellipse cx="609.856" cy="63.0965" rx="139.703" ry="116.759" transform="rotate(-4.0801 609.856 63.0965)" fill="#2CEFFF"/>
</g>
<g filter="url(#filter5_f_1919_21622)">
<ellipse cx="1031.18" cy="112.684" rx="98.4272" ry="82.3965" transform="rotate(-4.0801 1031.18 112.684)" fill="#B4169F"/>
</g>
<g filter="url(#filter6_f_1919_21622)">
<ellipse cx="1197.7" cy="539.394" rx="98.4272" ry="82.3965" transform="rotate(-4.0801 1197.7 539.394)" fill="#2CEFFF"/>
</g>
<g filter="url(#filter7_f_1919_21622)">
<ellipse cx="792.352" cy="66.7467" rx="98.4272" ry="82.3965" transform="rotate(-4.0801 792.352 66.7467)" fill="#2CEFFF"/>
</g>
<g filter="url(#filter8_f_1919_21622)">
<ellipse cx="1252.5" cy="684.366" rx="324.5" ry="234" fill="#402769" fill-opacity="0.27"/>
</g>
</g>
<g opacity="0.22">
<path d="M1596.47 634.404C1612.13 610.924 1610.23 580.606 1598.51 555.313C1586.79 530.02 1566.4 508.777 1545.66 488.601C1518.24 461.925 1488.73 435.699 1451.92 420.525C1400.61 399.379 1341.22 402.114 1285.41 409.649C1186.31 423.031 1090.13 450.089 996.636 482.202C896.411 516.625 794.255 557.706 686.922 552.618C590.602 548.055 524.63 506.249 454.738 452.321C389.551 402.025 335.47 337.038 254.781 304.26C148.904 261.249 19.1005 283.991 -74.4275 345.377C-167.955 406.763 -228.47 501.565 -262.759 600.602" stroke="url(#paint0_linear_1919_21622)" stroke-width="0.204752" stroke-miterlimit="10"/>
<path d="M1605.54 623.997C1619.77 603.722 1615.38 576.655 1601.79 552.938C1588.25 529.289 1567.1 508.602 1545.39 489.624C1516.81 464.64 1486.48 439.436 1448.71 425.244C1395.02 405.067 1333 407.174 1275.06 413.766C1176.33 424.993 1080.71 450.453 987.971 480.592C889.326 512.653 789.171 552.196 683.678 546.511C587.448 541.325 520.215 500.921 449.636 449.833C383.603 402.258 328.581 341.647 248.617 311.715C144.047 272.571 16.9761 296.408 -76.2468 356.72C-169.858 417.163 -231.955 507.755 -268.367 604.259" stroke="url(#paint1_linear_1919_21622)" stroke-width="0.204752" stroke-miterlimit="10"/>
<path d="M1614.59 613.604C1627.4 596.534 1620.58 572.786 1605.07 550.58C1589.75 528.632 1567.82 508.445 1545.12 490.669C1515.4 467.384 1484.19 443.214 1445.49 429.979C1389.39 410.797 1324.8 412.278 1264.71 417.895C1166.41 427.082 1071.3 450.829 979.306 478.996C882.258 508.711 784.077 546.686 680.433 540.413C584.293 534.593 515.917 495.457 444.528 447.358C377.773 402.378 321.725 346.277 242.452 319.183C139.23 283.907 14.8501 308.838 -78.0678 368.08C-171.767 427.58 -235.445 513.958 -273.98 607.934" stroke="url(#paint2_linear_1919_21622)" stroke-width="0.204752" stroke-miterlimit="10"/>
<path d="M1623.64 603.202C1635.02 589.337 1625.84 568.972 1608.34 548.208C1591.32 528.004 1568.53 508.281 1544.84 491.701C1514.01 470.115 1481.88 447.002 1442.26 434.702C1383.72 416.528 1316.64 417.395 1254.35 422.012C1156.51 429.261 1061.91 451.197 970.633 477.387C875.208 504.767 778.976 541.15 677.181 534.306C581.126 527.848 511.545 490.061 439.418 444.87C371.868 402.547 314.901 350.889 236.281 326.639C134.446 295.222 12.7176 321.259 -79.8953 379.423C-173.678 437.977 -238.938 520.144 -279.596 611.588" stroke="url(#paint3_linear_1919_21622)" stroke-width="0.204752" stroke-miterlimit="10"/>
<path d="M1632.71 592.8C1642.67 582.139 1631.21 565.2 1611.63 545.837C1592.99 527.399 1569.29 508.118 1544.58 492.732C1512.65 472.846 1479.56 450.809 1439.06 439.429C1378.04 422.286 1308.51 422.547 1244.01 426.132C1146.67 431.543 1052.56 451.575 961.98 475.777C868.203 500.834 773.894 535.596 673.948 528.196C577.974 521.092 507.178 484.656 434.327 442.382C365.974 402.715 308.13 355.506 230.128 334.09C129.727 306.526 10.6041 333.673 -81.7038 390.763C-175.57 448.381 -242.413 526.334 -285.192 615.249" stroke="url(#paint4_linear_1919_21622)" stroke-width="0.204752" stroke-miterlimit="10"/>
<path d="M1641.76 582.392C1650.3 574.94 1636.65 561.445 1614.91 543.464C1594.75 526.795 1570.05 507.949 1544.31 493.758C1511.31 475.563 1477.22 454.63 1435.84 444.146C1372.33 428.058 1300.39 427.72 1233.65 430.244C1136.84 433.907 1043.22 451.948 953.309 474.163C861.203 496.919 768.791 530.02 670.698 522.083C574.801 514.326 502.791 479.254 429.22 439.892C360.055 402.886 301.38 360.113 223.963 341.544C125.039 317.816 8.61632 346.271 -83.5247 402.108C-177.34 458.958 -245.903 532.518 -290.806 618.901" stroke="url(#paint5_linear_1919_21622)" stroke-width="0.204752" stroke-miterlimit="10"/>
<path d="M1650.81 571.992C1657.92 567.745 1642.19 557.698 1618.18 541.095C1596.6 526.176 1570.83 507.781 1544.03 494.792C1509.98 478.285 1474.86 458.477 1432.61 448.875C1366.6 433.868 1292.29 432.935 1223.3 434.37C1127.03 436.371 1033.91 452.349 944.636 472.563C854.226 493.034 763.689 524.445 667.445 515.987C571.625 507.565 498.388 473.868 424.109 437.414C354.123 403.068 294.671 364.723 217.791 349.009C120.391 329.099 6.50464 358.729 -85.353 413.461C-179.231 469.396 -249.397 538.711 -296.422 622.565" stroke="url(#paint6_linear_1919_21622)" stroke-width="0.204752" stroke-miterlimit="10"/>
<path d="M1659.86 561.581C1665.55 560.538 1647.82 553.915 1621.45 538.718C1598.54 525.51 1571.62 507.6 1543.76 495.818C1508.68 480.986 1472.5 462.336 1429.39 453.591C1360.85 439.69 1284.2 438.172 1212.94 438.481C1117.24 438.895 1024.62 452.744 935.962 470.948C847.269 489.156 758.582 518.839 664.192 509.87C568.448 500.772 493.98 468.466 418.997 434.92C348.187 403.238 287.999 369.307 211.618 356.458C115.792 340.338 4.38783 371.171 -87.1821 424.802C-181.126 479.824 -252.896 544.898 -302.044 626.221" stroke="url(#paint7_linear_1919_21622)" stroke-width="0.204752" stroke-miterlimit="10"/>
<path d="M1668.93 551.189C1673.2 553.351 1653.54 550.106 1624.75 536.357C1600.56 524.815 1572.44 507.42 1543.5 496.856C1507.42 483.685 1470.14 466.222 1426.19 458.321C1355.11 445.546 1276.14 443.456 1202.6 442.604C1107.48 441.504 1015.38 453.167 927.316 469.341C840.366 485.314 753.503 513.226 660.971 503.766C565.3 493.984 489.591 463.08 413.919 432.434C342.271 403.421 281.402 373.879 205.481 363.913C111.273 351.548 2.30337 383.614 -88.9746 436.145C-182.997 490.258 -256.363 551.095 -307.633 629.885" stroke="url(#paint8_linear_1919_21622)" stroke-width="0.204752" stroke-miterlimit="10"/>
<path d="M1677.98 540.789C1680.83 546.16 1659.3 546.228 1628.02 533.992C1602.62 524.057 1573.26 507.228 1543.22 497.894C1506.14 486.368 1467.75 470.127 1422.96 463.053C1349.34 451.429 1268.07 448.778 1192.24 446.731C1097.7 444.177 1006.13 453.609 918.637 467.742C833.457 481.501 748.387 507.601 657.713 497.665C562.114 487.188 485.161 457.704 408.803 429.956C336.313 403.611 274.807 378.436 199.304 371.378C106.76 362.727 0.177956 396.064 -90.8122 447.501C-184.897 500.687 -259.861 557.287 -313.25 633.549" stroke="url(#paint9_linear_1919_21622)" stroke-width="0.204752" stroke-miterlimit="10"/>
<path d="M1687.04 530.388C1688.46 538.964 1665.1 542.281 1631.3 531.622C1604.71 523.239 1574.09 507.021 1542.96 498.927C1504.89 489.032 1465.38 474.039 1419.75 467.778C1343.58 457.327 1260.01 454.13 1181.89 450.849C1087.94 446.904 996.934 454.061 909.975 466.135C826.585 477.715 743.291 501.957 654.471 491.56C558.94 480.381 480.739 452.329 403.698 427.47C330.358 403.805 268.257 382.954 193.138 378.835C102.301 373.852 -1.936 408.506 -92.6342 458.847C-186.794 511.108 -263.349 563.475 -318.864 637.205" stroke="url(#paint10_linear_1919_21622)" stroke-width="0.204752" stroke-miterlimit="10"/>
<path d="M1696.1 519.984C1696.09 531.764 1670.92 538.26 1634.58 529.252C1606.82 522.369 1574.93 506.797 1542.68 499.956C1503.64 491.675 1462.99 477.962 1416.53 472.502C1337.81 463.247 1251.95 459.519 1171.54 454.971C1078.18 449.687 987.749 454.54 901.306 464.53C819.728 473.958 738.188 496.297 651.222 485.459C555.759 473.561 476.302 446.964 398.592 424.99C324.398 404.009 261.744 387.445 186.975 386.299C97.8824 384.934 -4.05176 420.951 -94.4535 470.199C-188.688 521.537 -266.834 569.67 -324.472 640.871" stroke="url(#paint11_linear_1919_21622)" stroke-width="0.204752" stroke-miterlimit="10"/>
<path d="M1705.15 509.582C1703.72 524.567 1676.74 534.178 1637.85 526.882C1608.92 521.453 1575.77 506.562 1542.41 500.988C1502.4 494.303 1460.61 481.903 1413.31 477.225C1332.03 469.189 1243.89 464.946 1161.18 459.088C1068.42 452.515 978.589 455.04 892.641 462.921C812.893 470.231 733.09 490.617 647.978 479.348C552.583 466.717 471.865 441.599 393.49 422.499C318.432 404.208 255.26 391.881 180.811 393.747C93.4929 395.939 -6.17225 433.38 -96.2734 481.539C-190.587 531.953 -270.324 575.856 -330.084 644.529" stroke="url(#paint12_linear_1919_21622)" stroke-width="0.204752" stroke-miterlimit="10"/>
<path d="M1714.21 499.186C1711.36 517.376 1682.55 530.04 1641.14 524.521C1611.02 520.506 1576.62 506.321 1542.15 502.03C1501.17 496.925 1458.23 485.862 1410.1 481.962C1326.26 475.164 1235.83 470.424 1150.83 463.219C1058.66 455.407 969.456 455.581 883.977 461.322C806.085 466.557 727.997 484.931 644.735 473.252C549.407 459.876 467.42 436.255 388.388 420.025C312.464 404.433 248.798 396.289 174.648 401.216C89.1296 406.9 -8.29177 445.823 -98.0923 492.896C-192.489 542.379 -273.808 582.053 -335.691 648.194" stroke="url(#paint13_linear_1919_21622)" stroke-width="0.204752" stroke-miterlimit="10"/>
<path d="M1723.27 488.777C1719 510.176 1688.35 525.836 1644.42 522.143C1613.1 519.51 1577.47 506.051 1541.88 503.051C1499.93 499.515 1455.85 489.812 1406.89 486.674C1320.49 481.134 1227.78 475.917 1140.49 467.325C1048.9 458.312 960.348 456.132 875.32 459.702C799.297 462.895 722.91 479.21 641.498 467.131C546.242 452.998 462.982 430.898 383.294 417.522C306.498 404.637 242.355 400.615 168.496 408.657C84.7898 417.772 -10.4046 458.237 -99.9002 504.229C-194.376 552.776 -277.286 588.232 -341.287 651.841" stroke="url(#paint14_linear_1919_21622)" stroke-width="0.204752" stroke-miterlimit="10"/>
<path d="M1732.32 478.373C1726.62 502.976 1694.11 521.59 1647.69 519.773C1615.15 518.496 1578.3 505.778 1541.61 504.084C1498.68 502.102 1453.46 493.784 1403.66 491.398C1314.7 487.138 1219.7 481.459 1130.13 471.443C1039.12 461.267 951.236 456.733 866.643 458.094C792.502 459.287 717.803 473.485 638.241 461.025C543.053 446.117 458.519 425.56 378.179 415.039C300.512 404.868 235.9 404.907 162.32 416.118C80.4294 428.59 -12.5418 470.668 -101.732 515.577C-196.296 563.189 -280.783 594.424 -346.911 655.503" stroke="url(#paint15_linear_1919_21622)" stroke-width="0.204752" stroke-miterlimit="10"/>
<path d="M1741.38 467.967C1734.25 495.775 1699.86 517.31 1650.97 517.398C1617.19 517.458 1579.15 505.493 1541.33 505.112C1497.44 504.672 1451.08 497.76 1400.45 496.121C1308.93 493.156 1211.62 487.042 1119.77 475.564C1029.34 464.26 942.148 457.378 857.975 456.489C785.729 455.725 712.706 467.747 634.995 454.923C539.882 439.224 454.067 420.237 373.075 412.559C294.536 405.11 229.451 409.148 156.153 423.577C76.0743 439.347 -14.6689 483.097 -103.555 526.928C-198.202 573.598 -284.271 600.614 -352.517 659.162" stroke="url(#paint16_linear_1919_21622)" stroke-width="0.204752" stroke-miterlimit="10"/>
<path d="M1750.43 457.572C1741.89 488.585 1705.57 513.009 1654.25 515.038C1619.2 516.423 1579.98 505.207 1541.06 506.151C1496.18 507.242 1448.7 501.754 1397.23 500.85C1303.16 499.197 1203.53 492.67 1109.42 479.687C1019.54 467.286 933.068 458.072 849.312 454.883C778.965 452.207 707.622 461.994 631.752 448.815C536.715 432.311 449.619 414.92 367.974 410.07C288.559 405.355 222.992 413.316 149.995 431.032C71.714 450.03 -16.7923 495.514 -105.369 538.271C-200.108 584.005 -287.755 606.803 -358.124 662.823" stroke="url(#paint17_linear_1919_21622)" stroke-width="0.204752" stroke-miterlimit="10"/>
<path d="M1759.48 447.172C1749.51 481.394 1711.26 508.681 1657.53 512.669C1621.19 515.365 1580.8 504.904 1540.79 507.185C1494.92 509.799 1446.31 505.755 1394 505.579C1297.39 505.256 1195.42 498.34 1099.06 483.81C1009.74 470.341 923.981 458.815 840.637 453.28C772.195 448.734 702.525 456.224 628.502 442.715C533.541 425.381 445.163 409.614 362.862 407.593C282.576 405.618 216.496 417.441 143.821 438.497C67.3075 460.666 -18.9359 507.941 -107.199 549.624C-202.03 594.412 -291.251 613.003 -363.746 666.49" stroke="url(#paint18_linear_1919_21622)" stroke-width="0.204752" stroke-miterlimit="10"/>
<path d="M1768.55 436.769C1757.16 474.196 1716.94 504.334 1660.81 510.301C1623.18 514.303 1581.63 504.599 1540.53 508.22C1493.67 512.349 1443.95 509.76 1390.8 510.305C1291.63 511.327 1187.32 504.045 1088.72 487.93C999.938 473.421 914.919 459.612 831.983 451.674C765.44 445.307 697.453 450.44 625.268 436.607C530.391 418.43 440.728 404.313 357.77 405.104C276.612 405.877 209.985 421.498 137.668 445.952C62.8911 471.239 -21.059 520.354 -109.008 560.971C-203.931 604.808 -294.73 619.193 -369.344 670.151" stroke="url(#paint19_linear_1919_21622)" stroke-width="0.204752" stroke-miterlimit="10"/>
<path d="M1777.61 426.368C1764.79 467 1722.58 499.974 1664.09 507.931C1625.14 513.232 1582.46 504.28 1540.26 509.253C1492.4 514.89 1441.58 513.767 1387.58 515.033C1285.88 517.411 1179.19 509.789 1078.37 492.052C990.113 476.525 905.833 460.465 823.315 450.07C758.669 441.925 692.369 444.638 622.021 430.506C527.232 411.461 436.28 399.024 352.665 402.624C270.641 406.154 203.423 425.512 131.506 453.412C58.4231 481.767 -23.1906 532.769 -110.83 572.319C-205.85 615.205 -298.218 625.384 -374.958 673.81" stroke="url(#paint20_linear_1919_21622)" stroke-width="0.204752" stroke-miterlimit="10"/>
<path d="M1786.66 415.969C1772.42 459.805 1728.19 495.608 1667.36 505.566C1627.07 512.162 1583.26 503.966 1539.98 510.287C1491.11 517.428 1439.2 517.782 1384.35 519.758C1280.11 523.508 1171.04 515.573 1068.01 496.175C980.268 479.653 896.721 461.38 814.644 448.467C751.882 438.589 687.289 438.826 618.77 424.405C524.078 404.474 431.837 393.741 347.556 400.142C264.67 406.44 196.805 429.477 125.336 460.874C53.8998 492.259 -25.3346 545.181 -112.656 583.672C-207.772 625.6 -301.709 631.58 -380.572 677.478" stroke="url(#paint21_linear_1919_21622)" stroke-width="0.204752" stroke-miterlimit="10"/>
<path d="M1795.72 405.565C1780.05 452.605 1733.8 491.23 1670.65 503.192C1629 511.085 1584.07 503.637 1539.72 511.317C1489.84 519.954 1436.84 521.801 1381.14 524.479C1274.38 529.616 1162.89 521.395 1057.66 500.289C970.425 482.792 887.604 462.352 805.984 446.852C745.089 435.288 682.224 432.987 615.531 418.289C520.94 397.445 427.405 388.454 342.459 397.649C258.714 406.714 190.143 433.388 119.181 468.323C49.3402 502.705 -27.4632 557.577 -114.467 595.01C-209.684 635.976 -305.19 637.764 -386.171 681.13" stroke="url(#paint22_linear_1919_21622)" stroke-width="0.204752" stroke-miterlimit="10"/>
<path d="M1804.77 395.163C1787.68 445.413 1739.38 486.851 1673.92 500.826C1630.9 510.009 1584.86 503.31 1539.44 512.353C1488.53 522.487 1434.47 525.831 1377.92 529.21C1268.62 535.741 1154.7 527.262 1047.3 504.414C960.55 485.957 878.438 463.402 797.309 445.251C738.255 432.039 677.153 427.147 612.277 412.19C517.799 390.406 422.967 383.184 337.347 395.169C252.748 407.013 183.406 437.28 113.007 475.787C44.7057 513.145 -29.6111 569.984 -116.297 606.365C-211.614 646.37 -308.685 643.962 -391.793 684.8" stroke="url(#paint23_linear_1919_21622)" stroke-width="0.204752" stroke-miterlimit="10"/>
<path d="M1813.83 384.763C1795.32 438.217 1744.95 482.473 1677.2 498.457C1632.8 508.935 1585.66 502.977 1539.17 513.383C1487.24 525.01 1432.11 529.858 1374.71 533.931C1262.89 541.868 1146.5 533.161 1036.96 508.529C950.676 489.131 869.242 464.504 788.647 443.64C731.405 428.822 672.099 421.281 609.035 406.078C514.679 383.327 418.546 377.908 332.247 392.679C246.799 407.302 176.625 441.138 106.846 483.237C40.0238 523.553 -31.7506 582.373 -118.114 617.703C-213.532 656.738 -312.172 650.143 -397.399 688.448" stroke="url(#paint24_linear_1919_21622)" stroke-width="0.204752" stroke-miterlimit="10"/>
<path d="M1822.88 374.352C1802.95 431.011 1750.5 478.08 1680.48 496.08C1634.69 507.851 1586.44 502.637 1538.9 514.409C1485.93 527.525 1429.75 533.881 1371.49 538.652C1257.16 548.007 1138.28 539.098 1026.6 512.645C940.783 492.317 859.991 465.676 779.984 442.029C724.524 425.636 667.048 415.405 605.793 399.97C511.571 376.226 414.128 372.644 327.147 390.194C240.857 407.603 169.775 444.978 100.688 490.695C35.2897 533.966 -33.8867 594.766 -119.928 629.053C-215.451 667.114 -315.652 656.336 -403.005 692.112" stroke="url(#paint25_linear_1919_21622)" stroke-width="0.204752" stroke-miterlimit="10"/>
<path d="M1831.94 363.952C1810.58 423.815 1756.04 473.698 1683.76 493.711C1636.57 506.777 1587.23 502.299 1538.63 515.443C1484.62 530.047 1427.39 537.92 1368.27 543.377C1251.43 554.161 1130.04 545.077 1016.25 516.767C930.872 495.525 850.678 466.923 771.315 440.426C717.59 422.487 662.004 409.519 602.544 393.869C508.469 369.101 409.713 367.387 322.036 387.711C234.91 407.911 162.859 448.814 94.5156 498.156C30.4855 544.382 -36.0372 607.162 -121.756 640.402C-217.384 677.486 -319.145 662.531 -408.621 695.776" stroke="url(#paint26_linear_1919_21622)" stroke-width="0.204752" stroke-miterlimit="10"/>
<path d="M1841 353.557C1818.22 416.626 1761.57 469.326 1687.04 491.351C1638.44 505.716 1588.01 501.968 1538.36 516.482C1483.31 532.576 1425.04 541.967 1365.05 548.107C1245.71 560.328 1121.78 551.096 1005.9 520.891C920.955 498.747 841.304 468.23 762.653 438.82C710.621 419.364 656.971 403.621 599.303 387.762C505.396 361.936 405.309 362.124 316.936 385.227C228.982 408.217 155.894 452.641 88.3544 505.615C25.6368 554.804 -38.181 619.549 -123.573 651.749C-219.307 687.848 -322.632 668.721 -414.226 699.434" stroke="url(#paint27_linear_1919_21622)" stroke-width="0.204752" stroke-miterlimit="10"/>
<path d="M1850.06 343.147C1825.85 409.424 1767.09 464.935 1690.32 488.972C1640.3 504.633 1588.79 501.621 1538.09 517.506C1481.99 535.089 1422.69 545.999 1361.84 552.826C1240 566.491 1113.49 557.145 995.549 525.004C911.011 501.969 831.848 469.586 753.986 437.207C703.599 416.252 651.941 397.7 596.06 381.651C502.334 354.733 400.913 356.865 311.836 382.735C223.058 408.519 148.877 456.463 82.1965 513.062C20.7444 565.225 -40.3867 631.78 -125.387 663.088C-221.304 698.042 -326.112 674.903 -419.833 703.087" stroke="url(#paint28_linear_1919_21622)" stroke-width="0.204752" stroke-miterlimit="10"/>
<path d="M1859.12 332.746C1833.49 402.228 1772.61 460.556 1693.61 486.605C1642.16 503.569 1589.56 501.283 1537.83 518.542C1480.66 537.61 1420.35 550.048 1358.62 557.553C1234.29 572.67 1105.17 563.238 985.2 529.125C901.059 505.203 822.307 471.001 745.322 435.602C696.522 413.164 646.928 391.775 592.817 375.545C499.298 347.496 396.577 351.756 306.735 380.251C217.194 408.979 141.804 460.303 76.0342 520.522C15.8006 575.671 -42.51 644.201 -127.205 674.436C-223.206 708.447 -329.6 681.094 -425.439 706.75" stroke="url(#paint29_linear_1919_21622)" stroke-width="0.204752" stroke-miterlimit="10"/>
<path d="M1868.16 322.352C1841.11 395.039 1778.1 456.189 1696.87 484.243C1643.99 502.506 1590.28 500.873 1537.54 519.579C1479.28 540.048 1418.01 554.2 1355.4 562.285C1228.61 579.063 1096.83 569.369 974.836 533.251C891.078 508.452 812.665 472.462 736.647 434.002C689.382 410.085 641.916 385.844 589.563 369.447C496.271 340.228 392.152 346.437 301.623 377.772C211.245 409.225 134.677 464.157 69.8606 527.986C10.8029 586.144 -44.6446 656.631 -129.039 685.792C-225.123 718.856 -333.099 687.297 -431.061 710.42" stroke="url(#paint30_linear_1919_21622)" stroke-width="0.204752" stroke-miterlimit="10"/>
<path d="M1877.22 311.952C1848.75 387.844 1783.6 451.815 1700.15 481.877C1645.84 501.443 1591.08 500.616 1537.28 520.616C1477.98 542.658 1415.66 558.158 1352.18 567.013C1222.88 585.056 1088.46 575.531 964.486 537.377C881.09 511.71 802.938 473.963 727.982 432.398C682.187 407.006 636.927 379.897 586.318 363.346C493.283 332.912 387.74 341.115 296.521 375.293C205.301 409.471 127.522 468.025 63.7007 535.451C5.78057 596.637 -46.7655 669.058 -130.855 697.145C-227.027 729.266 -336.581 693.492 -436.669 714.083" stroke="url(#paint31_linear_1919_21622)" stroke-width="0.204752" stroke-miterlimit="10"/>
<path d="M1492.44 554.911C1481.72 458.539 1431.83 365.934 1354.14 298.19C1332.03 278.916 1306.69 261.118 1276.69 254.598C1189.98 235.763 1108.04 302.784 1041.96 342.694C962.201 390.863 883.635 440.857 799.629 483.092C752.467 506.804 696.317 528.461 645.758 510.966C594.559 493.249 569.761 442.999 544.193 399.622C514.4 349.076 476.038 301.301 424.196 267.791C372.359 234.286 305.622 216.368 243.195 228.573C194.309 238.128 151.96 264.833 113.84 293.727C13.6761 369.646 -67.6154 465.27 -122.585 571.827" stroke="url(#paint32_linear_1919_21622)" stroke-width="0.204752" stroke-miterlimit="10"/>
<path d="M1494.63 550.494C1484.26 457.229 1433.46 369.61 1354.33 301.887C1332.24 282.979 1307.19 265.379 1277.6 258.758C1191.93 239.537 1111.05 303.29 1045.13 341.824C974.845 382.909 905.446 426.106 831.64 464.479C822.567 469.215 813.442 473.873 804.252 478.441C757.446 501.713 701.97 523.047 651.926 506.509C601.222 489.771 576.092 441.573 550.241 400.011C520.043 351.609 481.588 305.873 430.133 273.859C378.546 241.892 312.582 224.911 250.833 236.896C208.87 245.033 171.677 265.523 137.798 288.919C132.551 292.538 127.416 296.255 122.302 299.95C20.8371 373.254 -60.1925 461.485 -113.389 564.606" stroke="url(#paint33_linear_1919_21622)" stroke-width="0.204752" stroke-miterlimit="10"/>
<path d="M1496.82 546.082C1486.8 455.928 1435.09 373.288 1354.53 305.591C1332.45 287.042 1307.69 269.652 1278.51 262.926C1193.88 243.32 1114.07 303.809 1048.3 340.968C978.705 380.289 909.914 422.373 836.053 460.117C827.048 464.756 817.991 469.323 808.873 473.806C762.423 496.638 707.617 517.649 658.089 502.068C607.875 486.314 582.412 440.164 556.279 400.42C525.676 354.165 487.132 310.461 436.055 279.947C384.719 249.513 319.531 233.473 258.457 245.242C216.869 253.244 179.915 273.081 146.193 295.594C140.967 299.075 135.869 302.678 130.75 306.197C27.928 376.894 -52.7799 457.727 -104.207 557.409" stroke="url(#paint34_linear_1919_21622)" stroke-width="0.204752" stroke-miterlimit="10"/>
<path d="M1499.02 541.67C1489.35 454.623 1436.75 376.958 1354.74 309.293C1332.68 291.099 1308.19 273.918 1279.42 267.092C1195.83 247.1 1117.11 304.328 1051.49 340.104C982.591 377.667 914.287 418.466 840.479 455.751C831.528 460.276 822.552 464.77 813.506 469.165C767.413 491.556 713.281 512.244 664.268 497.624C614.549 482.849 588.839 438.705 562.333 400.825C531.428 356.657 492.782 314.927 441.999 286.031C390.997 257.013 326.496 242.032 266.106 253.585C224.894 261.453 188.183 280.639 154.609 302.266C149.399 305.609 144.344 309.098 139.223 312.441C34.9927 380.53 -45.3465 453.962 -94.9953 550.209" stroke="url(#paint35_linear_1919_21622)" stroke-width="0.204752" stroke-miterlimit="10"/>
<path d="M1501.22 537.247C1491.88 453.311 1438.42 380.613 1354.93 312.984C1332.91 295.141 1308.69 278.173 1280.33 271.246C1197.78 250.865 1120.15 304.832 1054.66 339.229C986.479 375.036 918.724 414.661 844.894 451.374C836.003 455.795 827.098 460.205 818.125 464.512C772.388 486.467 718.925 506.828 670.429 493.164C621.2 479.369 595.183 437.258 568.368 401.212C537.088 359.168 498.349 319.455 447.923 292.093C397.197 264.571 333.448 250.569 273.732 261.902C232.895 269.634 196.424 288.171 163.007 308.911C157.817 312.117 152.795 315.487 147.674 318.662C41.9787 384.145 -37.9361 450.178 -85.8113 542.986" stroke="url(#paint36_linear_1919_21622)" stroke-width="0.204752" stroke-miterlimit="10"/>
<path d="M1503.41 532.828C1494.42 452 1440.1 384.265 1355.13 316.679C1333.14 299.188 1309.18 282.436 1281.24 275.404C1199.73 254.638 1123.2 305.348 1057.83 338.362C990.382 372.426 923.17 410.869 849.311 447.001C840.483 451.319 831.651 455.645 822.75 459.864C777.369 481.378 724.581 501.417 676.6 488.713C627.861 475.898 601.537 435.819 574.414 401.612C542.759 361.688 503.918 323.995 453.854 298.171C403.399 272.145 340.401 259.122 281.364 270.238C240.903 277.832 204.671 295.718 171.406 315.576C166.232 318.645 161.244 321.9 156.126 324.899C48.9111 387.767 -30.5238 446.406 -76.6254 535.776" stroke="url(#paint37_linear_1919_21622)" stroke-width="0.204752" stroke-miterlimit="10"/>
<path d="M1505.61 528.414C1496.97 450.693 1441.79 387.913 1355.33 320.382C1333.37 303.234 1309.68 286.703 1282.16 279.571C1201.68 258.42 1126.27 305.876 1061.01 337.5C994.301 369.824 927.617 407.081 853.732 442.637C844.968 446.856 836.208 451.089 827.379 455.228C782.354 476.302 730.239 496.017 682.77 484.271C634.526 472.439 607.89 434.388 580.459 402.019C548.425 364.216 509.487 328.547 459.788 304.256C409.599 279.727 347.361 267.679 288.999 278.583C248.918 286.042 212.926 303.278 179.813 322.25C174.66 325.181 169.701 328.313 164.59 331.145C55.8038 391.391 -23.0954 442.647 -67.4276 528.577" stroke="url(#paint38_linear_1919_21622)" stroke-width="0.204752" stroke-miterlimit="10"/>
<path d="M1507.81 523.994C1499.51 449.383 1443.51 391.545 1355.53 324.076C1333.62 307.271 1310.17 291.014 1283.08 283.728C1203.58 262.341 1129.36 306.398 1064.2 336.628C998.244 367.223 932.078 403.287 858.159 438.263C849.458 442.378 840.77 446.528 832.014 450.578C787.346 471.215 735.9 490.604 688.951 479.814C641.197 468.962 614.25 432.94 586.519 402.408C554.106 366.726 515.066 333.078 465.733 310.325C415.807 287.295 354.333 276.222 296.65 286.906C256.944 294.23 221.235 310.877 188.231 328.898C183.098 331.699 178.164 334.705 173.06 337.369C62.6476 394.978 -15.6645 438.862 -58.223 521.357" stroke="url(#paint39_linear_1919_21622)" stroke-width="0.204752" stroke-miterlimit="10"/>
<path d="M1510 519.572C1502.05 448.068 1445.23 395.166 1355.73 327.767C1333.86 311.299 1310.66 295.277 1283.99 287.879C1205.52 266.121 1132.45 306.921 1067.37 335.753C1002.18 364.631 936.526 399.499 862.574 433.883C853.936 437.898 845.321 441.96 836.632 445.922C792.321 466.119 741.549 485.185 695.111 475.355C647.851 465.483 620.585 431.49 592.554 402.8C559.757 369.234 520.62 337.618 471.657 316.391C421.994 294.861 361.28 284.763 304.275 295.231C264.945 302.42 229.48 318.421 196.628 335.551C191.516 338.219 186.602 341.099 181.514 343.595C69.4143 398.544 -8.25052 435.082 -49.0355 514.139" stroke="url(#paint40_linear_1919_21622)" stroke-width="0.204752" stroke-miterlimit="10"/>
<path d="M1512.19 515.155C1504.59 446.763 1446.96 398.781 1355.93 331.464C1334.11 315.331 1311.16 299.546 1284.9 292.039C1207.46 269.912 1135.55 307.458 1070.54 334.885C1006.14 362.053 940.981 395.712 866.99 429.512C858.416 433.428 849.872 437.402 841.256 441.276C797.305 461.033 747.199 479.775 701.281 470.903C654.512 462.014 626.929 430.046 598.599 403.197C565.414 371.748 526.176 342.16 477.591 322.467C428.182 302.44 368.24 293.313 311.91 303.561C272.956 310.612 237.734 325.975 205.035 342.211C199.939 344.741 195.049 347.495 189.974 349.826C76.1396 402.089 -0.830769 431.305 -39.8378 506.927" stroke="url(#paint41_linear_1919_21622)" stroke-width="0.204752" stroke-miterlimit="10"/>
<path d="M1514.38 510.744C1507.13 445.458 1448.7 402.394 1356.12 335.17C1334.36 319.369 1311.65 303.82 1285.8 296.209C1209.4 273.707 1138.67 308.015 1073.71 334.025C1010.11 359.499 945.434 391.942 871.405 425.146C862.899 428.963 854.419 432.849 845.879 436.639C802.285 455.959 752.852 474.378 707.446 466.462C661.171 458.553 633.264 428.61 604.638 403.603C571.062 374.271 531.726 346.718 483.515 328.552C434.36 310.029 375.187 301.873 319.536 311.905C280.957 318.821 245.979 333.537 213.428 348.883C208.352 351.275 203.479 353.903 198.419 356.074C82.7954 405.625 6.57951 427.548 -30.6582 499.731" stroke="url(#paint42_linear_1919_21622)" stroke-width="0.204752" stroke-miterlimit="10"/>
<path d="M1516.58 506.324C1509.67 444.146 1450.46 405.987 1356.32 338.864C1334.61 323.388 1312.14 308.086 1286.72 300.366C1211.35 277.491 1141.8 308.568 1076.89 333.153C1014.1 356.941 949.896 388.164 875.824 420.773C867.381 424.49 858.973 428.287 850.505 431.989C807.267 450.869 758.505 468.965 713.618 462.006C667.834 455.077 639.603 427.163 610.686 403.997C576.713 376.778 537.275 351.265 489.451 334.624C440.547 317.605 382.15 310.417 327.178 320.236C288.975 327.017 254.241 341.087 221.841 355.543C216.782 357.798 211.93 360.3 206.89 362.306C89.4244 409.102 14.0104 423.775 -21.4537 492.519" stroke="url(#paint43_linear_1919_21622)" stroke-width="0.204752" stroke-miterlimit="10"/>
<path d="M1518.78 501.906C1512.21 442.839 1452.24 409.567 1356.52 342.56C1334.88 327.408 1312.64 312.35 1287.63 304.526C1213.29 281.273 1144.94 309.134 1080.07 332.287C1018.1 354.407 954.356 384.396 880.242 416.405C871.863 420.023 863.527 423.732 855.127 427.346C812.246 445.785 764.169 463.475 719.782 457.56C674.504 451.527 645.928 425.725 616.728 404.401C582.351 379.299 542.82 355.825 495.379 340.703C446.72 325.195 389.1 318.97 334.807 328.57C296.979 335.216 262.485 348.64 230.237 362.205C225.199 364.326 220.358 366.691 215.339 368.541C95.9884 412.54 21.4194 420.001 -12.271 485.309" stroke="url(#paint44_linear_1919_21622)" stroke-width="0.204752" stroke-miterlimit="10"/>
<path d="M1520.96 497.491C1514.74 441.531 1454.02 413.138 1356.71 346.258C1335.14 331.427 1313.13 316.616 1288.54 308.687C1215.23 285.056 1148.09 309.714 1083.24 331.42C1022.11 351.883 958.821 380.625 884.66 412.031C876.349 415.55 868.081 419.171 859.752 422.697C817.228 440.699 769.821 458.058 725.953 453.104C681.166 448.047 652.253 424.278 622.775 404.791C587.992 381.806 548.364 360.372 501.314 346.772C452.897 332.776 396.062 327.514 342.443 336.898C304.992 343.405 270.737 356.186 238.646 368.862C233.623 370.845 228.795 373.076 223.8 374.773C102.517 415.926 28.8408 416.228 -3.07599 478.098" stroke="url(#paint45_linear_1919_21622)" stroke-width="0.204752" stroke-miterlimit="10"/>
<path d="M1523.16 493.072C1517.29 440.223 1455.83 416.69 1356.92 349.957C1335.4 335.446 1313.63 320.883 1289.45 312.85C1217.18 288.837 1151.26 310.306 1086.42 330.553C1026.13 349.376 963.294 376.864 889.081 407.663C880.834 411.085 872.638 414.614 864.382 418.056C822.213 435.619 775.48 452.65 732.124 448.657C687.827 444.579 658.577 422.839 628.821 405.194C593.625 384.326 553.904 364.939 507.245 352.853C459.065 340.372 403.02 336.07 350.075 345.238C312.999 351.61 278.984 363.746 247.045 375.53C242.043 377.376 237.226 379.474 232.256 381.014C109.003 419.264 36.2615 412.46 6.11405 470.895" stroke="url(#paint46_linear_1919_21622)" stroke-width="0.204752" stroke-miterlimit="10"/>
<path d="M1525.36 488.652C1519.83 438.91 1457.64 420.229 1357.11 353.65C1335.68 339.452 1314.13 325.14 1290.37 317.007C1219.12 292.613 1154.44 310.912 1089.6 329.685C1030.17 346.885 967.764 373.104 893.5 403.292C885.32 406.615 877.188 410.057 869.008 413.41C827.196 430.532 781.132 447.237 738.297 444.208C694.49 441.106 664.899 421.403 634.868 405.596C599.255 386.848 559.445 369.508 513.182 358.933C465.238 347.975 409.979 344.625 357.718 353.573C321.017 359.81 287.241 371.299 255.459 382.19C250.473 383.899 245.664 385.855 240.723 387.246C115.463 422.536 43.6882 408.687 15.3187 463.682" stroke="url(#paint47_linear_1919_21622)" stroke-width="0.204752" stroke-miterlimit="10"/>
<path d="M1527.56 484.233C1522.38 437.602 1459.47 423.75 1357.32 357.345C1335.95 343.456 1314.63 329.403 1291.28 321.165C1221.07 296.389 1157.64 311.537 1092.78 328.814C1034.22 344.411 972.243 369.346 897.924 398.915C889.812 402.143 881.747 405.488 873.635 408.757C832.18 425.443 786.786 441.821 744.466 439.749C701.149 437.627 671.208 419.96 640.912 405.983C604.877 389.359 564.978 374.067 519.114 364.995C471.404 355.56 416.938 353.158 365.352 361.893C329.031 367.992 295.49 378.835 263.86 388.839C258.89 390.41 254.093 392.225 249.177 393.471C121.882 425.728 51.1027 404.903 24.5068 456.464" stroke="url(#paint48_linear_1919_21622)" stroke-width="0.204752" stroke-miterlimit="10"/>
<path d="M1529.75 479.818C1524.91 436.295 1461.31 427.264 1357.51 361.044C1336.23 347.464 1315.12 333.666 1292.19 325.323C1223.01 300.159 1160.84 312.179 1095.95 327.943C1038.27 341.957 976.718 365.592 902.339 394.543C894.294 397.675 886.298 400.928 878.258 404.11C837.159 420.355 792.43 436.41 750.634 435.298C707.808 434.16 677.517 418.529 646.96 406.382C610.494 391.887 570.511 378.641 525.047 371.073C477.565 363.168 423.894 361.711 372.986 370.23C337.041 376.193 303.739 386.387 272.266 395.505C267.312 396.938 262.523 398.608 257.639 399.709C128.282 428.864 58.5298 401.135 33.7032 449.257" stroke="url(#paint49_linear_1919_21622)" stroke-width="0.204752" stroke-miterlimit="10"/>
<path d="M1531.94 475.409C1527.45 434.992 1463.16 430.76 1357.71 364.752C1336.5 351.477 1315.61 337.938 1293.1 329.494C1224.95 303.945 1164.04 312.856 1099.12 327.089C1042.33 339.538 981.188 361.862 906.749 390.183C898.768 393.219 890.843 396.381 882.876 399.478C842.133 415.283 798.074 431.015 756.794 430.86C714.457 430.701 683.809 417.114 652.994 406.793C616.094 394.435 576.035 383.236 530.971 377.163C483.718 370.796 430.844 370.276 380.615 378.575C345.045 384.403 311.979 393.947 280.667 402.178C275.733 403.474 270.947 404.995 266.093 405.954C134.655 431.932 65.9433 397.372 42.8904 442.059" stroke="url(#paint50_linear_1919_21622)" stroke-width="0.204752" stroke-miterlimit="10"/>
<path d="M1534.13 470.984C1529.99 433.679 1465.02 434.23 1357.91 368.441C1336.78 355.464 1316.12 342.191 1294.01 333.647C1226.9 307.704 1167.26 313.538 1102.3 326.213C1046.4 337.116 985.67 358.113 911.171 385.804C903.258 388.745 895.401 391.815 887.506 394.824C847.12 410.192 803.73 425.597 762.97 426.399C721.119 427.224 690.117 415.681 659.045 407.179C621.71 396.964 581.567 387.808 536.906 383.228C489.882 378.403 437.802 378.815 388.252 386.898C353.058 392.591 320.231 401.481 289.071 408.83C284.154 409.988 279.38 411.36 274.55 412.182C141.023 434.902 73.3608 393.595 52.0815 434.843" stroke="url(#paint51_linear_1919_21622)" stroke-width="0.204752" stroke-miterlimit="10"/>
<path d="M1536.33 466.575C1532.53 432.377 1466.91 437.692 1358.11 372.146C1337.06 359.466 1316.61 346.46 1294.92 337.815C1228.85 311.483 1170.48 314.261 1105.47 325.352C1050.47 334.732 990.156 354.384 915.589 381.441C907.744 384.286 899.951 387.264 892.132 390.185C852.102 405.113 809.382 420.199 769.138 421.958C727.777 423.762 696.416 414.279 665.087 407.587C627.314 399.52 587.094 392.411 542.838 389.311C496.043 386.032 444.76 387.373 395.885 395.24C361.067 400.795 328.475 409.034 297.476 415.501C292.575 416.521 287.808 417.74 283.011 418.425C147.391 437.799 80.7823 389.829 61.2767 427.641" stroke="url(#paint52_linear_1919_21622)" stroke-width="0.204752" stroke-miterlimit="10"/>
<path d="M1538.53 462.156C1535.07 431.068 1468.8 441.128 1358.31 375.84C1337.35 363.458 1317.12 350.718 1295.84 341.973C1230.8 315.244 1173.71 315.001 1108.65 324.48C1054.56 332.361 994.645 350.651 920.013 377.064C912.236 379.817 904.511 382.699 896.76 385.532C857.086 400.02 815.036 414.787 775.312 417.498C734.442 420.29 702.722 412.862 671.136 407.978C632.928 402.069 592.629 397 548.776 395.38C502.205 393.658 451.721 395.917 403.524 403.564C369.082 408.984 336.729 416.57 305.882 422.153C301.002 423.037 296.238 424.099 291.471 424.65C153.76 440.594 88.2064 386.048 70.4744 420.422" stroke="url(#paint53_linear_1919_21622)" stroke-width="0.204752" stroke-miterlimit="10"/>
<path d="M1540.72 457.737C1537.61 429.757 1470.7 444.543 1358.5 379.539C1337.63 367.447 1317.61 354.978 1296.74 346.135C1232.75 319.01 1176.93 315.776 1111.82 323.617C1058.63 330.021 999.125 346.935 924.424 372.699C916.715 375.356 909.058 378.147 901.379 380.891C862.062 394.943 820.681 409.387 781.477 413.055C741.097 416.83 709.019 411.466 677.18 408.381C638.533 404.639 598.158 401.613 554.704 401.462C508.363 401.301 458.676 404.47 411.158 411.904C377.091 417.189 344.974 424.117 314.288 428.822C309.424 429.568 304.668 430.474 299.934 430.894C160.145 443.318 95.6294 382.288 79.671 413.223" stroke="url(#paint54_linear_1919_21622)" stroke-width="0.204752" stroke-miterlimit="10"/>
<path d="M1542.92 453.314C1540.15 428.445 1472.61 447.93 1358.7 383.229C1337.92 371.427 1318.11 359.229 1297.66 350.29C1234.7 322.763 1180.16 316.574 1115 322.743C1062.71 327.692 1003.62 343.211 928.844 368.322C921.203 370.887 913.613 373.582 906.006 376.243C867.046 389.854 826.334 403.982 787.646 408.599C747.756 413.362 715.321 410.065 683.225 408.775C644.143 407.204 603.688 406.218 560.638 407.535C514.529 408.943 465.636 413.018 418.793 420.236C385.102 425.386 353.22 431.657 322.69 435.483C317.842 436.091 313.098 436.837 308.389 437.127C166.543 445.941 103.045 378.512 88.8598 406.012" stroke="url(#paint55_linear_1919_21622)" stroke-width="0.204752" stroke-miterlimit="10"/>
<path d="M1545.11 448.897C1542.69 427.135 1474.54 451.303 1358.9 386.925C1338.21 375.406 1318.61 363.485 1298.57 354.449C1236.66 326.522 1183.38 317.411 1118.17 321.873C1066.78 325.391 1008.11 339.496 933.26 363.947C925.686 366.42 918.165 369.019 910.63 371.592C872.03 384.762 831.988 398.572 793.816 404.142C754.416 409.892 721.631 408.669 689.269 409.168C649.762 409.774 609.222 410.831 566.567 413.602C520.692 416.586 472.588 421.56 426.424 428.558C393.108 433.57 361.465 439.187 331.092 442.13C326.26 442.597 321.523 443.182 316.843 443.346C172.961 448.463 110.46 374.726 98.0484 398.787" stroke="url(#paint56_linear_1919_21622)" stroke-width="0.204752" stroke-miterlimit="10"/>
<path d="M1547.3 444.486C1545.23 425.832 1476.48 454.661 1359.1 390.629C1338.5 379.391 1319.11 367.749 1299.48 358.612C1238.61 330.28 1186.6 318.286 1121.35 321.011C1070.84 323.121 1012.6 335.8 937.678 359.582C930.172 361.964 922.718 364.463 915.251 366.952C877.008 379.686 837.649 393.241 799.979 399.699C761.087 406.501 727.935 407.292 695.307 409.571C655.374 412.363 614.754 415.456 572.494 419.684C526.857 424.248 479.542 430.117 434.052 436.899C401.112 441.776 369.705 446.731 339.488 448.799C334.677 449.129 329.947 449.549 325.296 449.592C179.416 450.919 117.877 370.963 107.235 391.588" stroke="url(#paint57_linear_1919_21622)" stroke-width="0.204752" stroke-miterlimit="10"/>
<path d="M1549.5 440.066C1547.77 424.522 1478.43 457.985 1359.3 394.326C1338.79 383.367 1319.61 372.006 1300.39 362.772C1240.57 334.036 1189.8 319.193 1124.52 320.142C1074.9 320.863 1017.09 332.101 942.094 355.208C934.66 357.497 927.266 359.901 919.875 362.301C881.988 374.595 843.303 387.827 806.149 395.242C767.747 403.028 734.255 405.901 701.352 409.964C661.006 414.946 620.297 420.082 578.428 425.756C533.033 431.908 486.499 438.663 441.692 445.23C409.132 449.971 377.959 454.265 347.899 455.459C343.104 455.65 338.39 455.903 333.76 455.823C185.923 453.274 125.301 367.189 116.433 384.376" stroke="url(#paint58_linear_1919_21622)" stroke-width="0.204752" stroke-miterlimit="10"/>
<path d="M1551.7 435.648C1550.32 423.212 1480.39 461.286 1359.5 398.022C1339.09 387.341 1320.11 376.259 1301.31 366.932C1242.54 337.784 1193 320.133 1127.71 319.273C1078.95 318.631 1021.6 328.409 946.524 350.837C939.158 353.038 931.831 355.342 924.513 357.658C886.982 369.512 848.967 382.421 812.328 390.796C774.421 399.561 740.588 404.525 707.41 410.369C666.651 417.544 625.858 424.719 584.371 431.835C539.226 439.582 493.468 447.213 449.336 453.563C417.152 458.17 386.219 461.803 356.316 462.121C351.536 462.172 346.839 462.26 342.229 462.058C192.482 455.551 132.73 363.415 125.64 377.167" stroke="url(#paint59_linear_1919_21622)" stroke-width="0.204752" stroke-miterlimit="10"/>
<path d="M1553.89 431.226C1552.85 421.9 1482.36 464.559 1359.69 401.713C1339.38 391.303 1320.63 380.479 1302.21 371.087C1244.55 341.438 1196.16 321.107 1130.88 318.402C1082.97 316.413 1026.09 324.723 950.933 346.464C943.635 348.573 936.376 350.782 929.13 353.01C891.956 364.427 854.614 377.009 818.491 386.341C781.074 396.086 746.908 403.143 713.448 410.76C672.289 420.128 631.407 429.35 590.298 437.905C545.404 447.251 500.418 455.758 456.964 461.892C425.156 466.36 394.462 469.285 364.711 468.778C359.952 468.683 355.266 468.608 350.681 468.291C199.08 457.747 140.143 359.643 134.826 369.956" stroke="url(#paint60_linear_1919_21622)" stroke-width="0.204752" stroke-miterlimit="10"/>
<path d="M1556.09 426.818C1555.39 420.6 1484.35 467.82 1359.9 405.419C1339.67 395.28 1321.13 384.75 1303.13 375.256C1246.51 345.219 1199.32 322.134 1134.06 317.542C1086.99 314.23 1030.6 321.06 955.359 342.098C948.128 344.12 940.937 346.229 933.759 348.369C896.941 359.345 860.269 371.604 824.662 381.893C787.735 392.618 753.246 401.769 719.494 411.162C677.939 422.727 636.968 433.993 596.229 443.986C551.598 454.935 507.375 464.314 464.596 470.232C433.163 474.565 402.708 476.84 373.114 475.447C368.372 475.215 363.706 474.971 359.137 474.532C205.736 459.873 147.563 355.875 144.016 362.752" stroke="url(#paint61_linear_1919_21622)" stroke-width="0.204752" stroke-miterlimit="10"/>
<path d="M1558.29 422.392C1557.94 419.285 1486.35 471.035 1360.11 409.11C1339.98 399.238 1321.64 389.009 1304.05 379.411C1248.47 348.988 1202.46 323.184 1137.24 316.668C1090.99 312.046 1035.14 317.474 959.787 337.722C952.628 339.663 945.501 341.665 938.395 343.717C901.933 354.253 865.935 366.189 830.844 377.438C794.412 389.147 759.616 400.426 725.55 411.557C683.626 425.365 642.571 438.701 602.174 450.059C557.837 462.684 514.347 472.862 472.247 478.56C441.19 482.758 410.979 484.38 381.533 482.104C376.807 481.734 372.161 481.315 367.609 480.761C212.476 461.915 154.995 352.099 153.221 355.534" stroke="url(#paint62_linear_1919_21622)" stroke-width="0.204752" stroke-miterlimit="10"/>
<path d="M1560.48 417.982C1560.48 417.982 1488.35 474.236 1360.3 412.814C1232.24 351.391 1181.63 276.778 964.198 333.358C746.767 389.937 557.253 506.841 389.931 488.77C222.608 470.699 162.41 348.332 162.41 348.332" stroke="url(#paint63_linear_1919_21622)" stroke-width="0.204752" stroke-miterlimit="10"/>
<path d="M1657.18 378.647C1643.92 347.414 1605.6 328.965 1568.28 326.67C1530.96 324.375 1494.34 335.316 1459.63 347.687C1387.86 373.265 1319.11 405.596 1245.85 427.598C1172.6 449.599 1092.6 460.904 1017.86 442.987C971.908 431.972 929.613 410.337 883.166 401.142C790.034 382.699 695.202 416.103 600.553 426.205C528.942 433.847 501.817 403.19 461.59 357.904C422.539 313.942 365.005 283.365 303.13 273.687C241.255 264.009 175.604 275.323 122.306 304.845" stroke="url(#paint64_linear_1919_21622)" stroke-width="0.204752" stroke-miterlimit="10"/>
<path d="M1658.51 374.242C1643.81 344.961 1604.67 327.645 1566.76 326.425C1528.79 325.239 1491.43 336.809 1455.77 349.432C1383.65 375.026 1314.13 406.588 1240.58 427.01C1167.3 447.522 1087.91 456.821 1013.12 438.904C967.326 427.93 924.997 407.013 878.686 398.222C785.88 380.591 691.481 413.486 597.212 423.503C526.02 431.07 497.829 401.407 457.039 357.191C417.744 314.33 360.682 284.019 299.359 275.58C238.164 267.057 173.657 279.223 120.851 308.731" stroke="url(#paint65_linear_1919_21622)" stroke-width="0.204752" stroke-miterlimit="10"/>
<path d="M1659.84 369.829C1643.69 342.504 1603.74 326.314 1565.24 326.169C1526.61 326.093 1488.52 338.288 1451.91 351.169C1379.44 376.78 1309.1 407.421 1235.31 426.411C1161.96 445.285 1083.22 452.722 1008.39 434.805C962.746 423.877 920.388 403.671 874.208 395.288C781.733 378.469 687.767 410.854 593.874 420.79C523.101 428.283 493.697 399.728 452.491 356.464C412.814 314.807 356.361 284.658 295.586 277.455C235.066 270.086 171.703 283.104 119.394 312.599" stroke="url(#paint66_linear_1919_21622)" stroke-width="0.204752" stroke-miterlimit="10"/>
<path d="M1661.16 365.407C1643.57 340.034 1602.8 324.977 1563.7 325.907C1524.43 326.94 1485.6 339.764 1448.04 352.897C1375.22 378.524 1304.09 408.324 1230.02 425.803C1156.63 443.119 1078.51 448.618 1003.63 430.697C958.153 419.811 915.765 400.322 869.716 392.348C777.567 376.341 684.034 408.213 590.522 418.071C520.167 425.491 489.633 397.985 447.924 355.735C407.938 315.232 352.002 285.437 291.794 279.331C231.938 273.259 169.73 286.99 117.918 316.473" stroke="url(#paint67_linear_1919_21622)" stroke-width="0.204752" stroke-miterlimit="10"/>
<path d="M1662.49 361.007C1643.46 337.59 1601.87 323.659 1562.18 325.667C1522.25 327.81 1482.69 341.259 1444.17 354.651C1371 380.295 1299.1 409.261 1224.74 425.221C1151.32 440.983 1073.82 444.536 998.898 426.616C953.57 415.771 911.153 396.996 865.239 389.43C773.417 374.235 680.317 405.598 587.184 415.37C517.249 422.716 485.588 396.257 443.376 355.024C403.095 315.672 347.682 286.138 288.022 281.222C228.841 276.347 167.782 290.888 116.461 320.357" stroke="url(#paint68_linear_1919_21622)" stroke-width="0.204752" stroke-miterlimit="10"/>
<path d="M1663.81 356.598C1643.34 335.134 1600.94 322.335 1560.65 325.419C1520.07 328.671 1479.77 342.749 1440.3 356.396C1366.78 382.057 1294.1 410.189 1219.45 424.63C1146.01 438.842 1069.12 440.449 994.147 422.525C948.977 411.725 906.527 393.665 860.749 386.503C769.257 372.121 676.586 402.971 583.834 412.665C514.317 419.937 481.533 394.528 438.816 354.309C398.238 316.107 343.349 286.831 284.24 283.112C225.74 279.434 165.82 294.784 114.995 324.244" stroke="url(#paint69_linear_1919_21622)" stroke-width="0.204752" stroke-miterlimit="10"/>
<path d="M1665.13 352.189C1643.22 332.681 1599.99 320.928 1559.13 325.17C1517.88 329.452 1476.86 344.239 1436.44 358.137C1362.57 383.814 1289.11 411.117 1214.18 424.039C1140.7 436.709 1064.43 436.358 989.414 418.438C944.399 407.68 901.919 390.334 856.272 383.58C765.107 370.01 672.869 400.35 580.497 409.96C511.399 417.158 477.501 392.795 434.269 353.593C393.404 316.542 339.034 287.52 280.469 285.002C222.648 282.516 163.872 298.684 113.539 328.127" stroke="url(#paint70_linear_1919_21622)" stroke-width="0.204752" stroke-miterlimit="10"/>
<path d="M1666.46 347.777C1643.11 330.221 1599.06 319.593 1557.61 324.919C1515.7 330.303 1473.95 345.722 1432.58 359.879C1358.36 385.573 1284.13 412.053 1208.9 423.445C1135.41 434.572 1059.73 432.268 984.673 414.345C939.817 403.628 897.303 387 851.792 380.65C760.953 367.893 669.148 397.724 577.156 407.252C508.477 414.376 473.474 391.059 429.713 352.871C388.57 316.966 334.711 288.202 276.689 286.882C219.552 285.585 161.911 302.569 112.075 332.003" stroke="url(#paint71_linear_1919_21622)" stroke-width="0.204752" stroke-miterlimit="10"/>
<path d="M1667.78 343.361C1642.98 327.762 1598.11 318.255 1556.07 324.663C1513.51 331.153 1471 347.125 1428.7 361.614C1354.08 387.182 1279.14 412.985 1203.62 422.843C1130.1 432.439 1055.02 428.171 979.922 410.243C935.22 399.568 892.677 383.654 847.302 377.716C756.789 365.767 665.417 395.089 573.801 404.535C505.541 411.589 469.433 389.315 425.148 352.145C383.73 317.382 330.383 288.873 272.903 288.761C216.451 288.649 159.949 306.455 110.601 335.875" stroke="url(#paint72_linear_1919_21622)" stroke-width="0.204752" stroke-miterlimit="10"/>
<path d="M1669.11 338.964C1642.86 325.317 1597.18 316.936 1554.55 324.427C1511.33 332.022 1468.08 348.619 1424.84 363.37C1349.86 388.948 1274.17 413.948 1198.34 422.264C1124.81 430.329 1050.33 424.092 975.182 406.164C930.639 395.535 888.066 380.335 842.817 374.801C752.636 363.664 661.692 392.477 570.457 401.842C502.615 408.822 465.41 387.59 420.594 351.441C378.905 317.821 326.064 289.566 269.124 290.659C213.36 291.728 157.989 310.363 109.137 339.766" stroke="url(#paint73_linear_1919_21622)" stroke-width="0.204752" stroke-miterlimit="10"/>
<path d="M1670.43 334.548C1642.75 322.857 1596.25 315.598 1553.03 324.171C1509.15 332.873 1465.18 350.094 1420.98 365.109C1345.65 390.695 1269.2 414.895 1193.07 421.666C1119.53 428.211 1045.64 419.998 970.447 402.071C926.058 391.482 883.457 376.997 838.343 371.871C748.488 361.547 657.977 389.846 567.122 399.134C499.699 406.039 461.406 385.846 416.045 350.722C374.094 318.237 321.751 290.24 265.35 292.545C210.274 294.793 156.039 314.256 107.679 343.65" stroke="url(#paint74_linear_1919_21622)" stroke-width="0.204752" stroke-miterlimit="10"/>
<path d="M1671.76 330.137C1642.63 320.399 1595.32 314.269 1551.5 323.921C1506.97 333.728 1462.26 351.578 1417.11 366.848C1341.44 392.447 1264.23 415.848 1187.79 421.073C1114.24 426.098 1040.94 415.905 965.705 397.978C921.475 387.431 878.839 373.66 833.861 368.943C744.333 359.43 654.255 387.22 563.78 396.422C496.776 403.254 457.399 384.095 411.493 350.001C369.285 318.651 317.44 290.908 261.577 294.426C207.19 297.851 154.086 318.142 106.222 347.524" stroke="url(#paint75_linear_1919_21622)" stroke-width="0.204752" stroke-miterlimit="10"/>
<path d="M1673.08 325.73C1642.51 317.948 1594.38 312.947 1549.97 323.674C1504.78 334.591 1459.34 353.066 1413.25 368.595C1337.22 394.207 1259.25 416.816 1182.5 420.484C1108.94 424.001 1036.24 411.82 960.957 393.889C916.881 383.388 874.216 370.33 829.374 366.021C740.172 357.321 650.527 384.598 560.432 393.723C493.847 400.481 453.394 382.352 406.934 349.287C364.473 319.068 313.122 291.579 257.794 296.317C204.099 300.913 152.127 322.044 104.755 351.412" stroke="url(#paint76_linear_1919_21622)" stroke-width="0.204752" stroke-miterlimit="10"/>
<path d="M1674.4 321.311C1642.39 315.485 1593.44 311.609 1548.44 323.415C1502.6 335.442 1456.42 354.542 1409.37 370.326C1333 395.954 1254.28 417.775 1177.22 419.879C1103.66 421.887 1031.54 407.715 956.216 389.785C912.298 379.324 869.6 366.981 824.889 363.08C736.017 355.193 646.801 381.96 557.087 390.999C490.92 397.683 449.392 380.582 402.379 348.553C359.673 319.462 308.807 292.227 254.013 298.185C201.011 303.951 150.166 325.919 103.29 355.274" stroke="url(#paint77_linear_1919_21622)" stroke-width="0.204752" stroke-miterlimit="10"/>
<path d="M1675.72 316.897C1642.28 313.023 1592.51 310.281 1546.92 323.162C1500.42 336.302 1453.51 356.023 1405.51 372.066C1328.79 397.711 1249.31 418.748 1171.94 419.283C1098.37 419.795 1026.84 403.623 951.475 385.689C907.711 375.27 864.984 363.645 820.408 360.149C731.863 353.073 643.08 379.331 553.746 388.289C487.998 394.899 445.407 378.821 397.823 347.833C354.877 319.865 304.497 292.884 250.233 300.071C197.924 306.998 148.205 329.81 101.825 359.152" stroke="url(#paint78_linear_1919_21622)" stroke-width="0.204752" stroke-miterlimit="10"/>
<path d="M1677.06 312.5C1642.17 310.582 1591.58 308.969 1545.4 322.922C1498.24 337.171 1450.61 357.517 1401.65 373.819C1324.58 399.484 1244.35 419.741 1166.67 418.704C1093.1 417.722 1022.16 399.548 946.741 381.614C903.137 371.241 860.38 360.326 815.935 357.237C727.717 350.974 639.366 376.719 550.412 385.595C485.084 392.131 441.43 377.073 393.28 347.129C350.102 320.277 300.193 293.554 246.469 301.972C194.848 310.058 146.265 333.722 100.377 363.05" stroke="url(#paint79_linear_1919_21622)" stroke-width="0.204752" stroke-miterlimit="10"/>
<path d="M1678.38 308.08C1642.04 308.115 1590.64 307.635 1543.87 322.662C1496.05 338.025 1447.69 358.995 1397.78 375.549C1320.36 401.231 1239.38 420.715 1161.39 418.098C1087.8 415.627 1017.45 395.442 941.991 377.508C898.541 367.177 855.755 356.98 811.445 354.3C723.557 348.845 635.636 374.084 547.062 382.879C482.153 389.341 437.445 375.294 388.72 346.402C345.309 320.662 295.874 294.198 242.684 303.847C191.756 313.088 144.299 337.603 98.9035 366.918" stroke="url(#paint80_linear_1919_21622)" stroke-width="0.204752" stroke-miterlimit="10"/>
<path d="M1679.7 303.677C1641.92 305.667 1589.71 306.321 1542.34 322.419C1493.88 338.895 1444.77 360.491 1393.91 377.3C1316.15 403.001 1234.4 421.717 1156.11 417.513C1082.51 413.56 1012.75 391.361 937.249 373.423C893.957 363.133 851.137 353.651 806.959 351.378C719.398 346.736 631.909 371.462 543.712 380.175C479.225 386.563 433.463 373.521 384.155 345.685C340.521 321.049 291.549 294.843 238.895 305.735C188.658 316.127 142.333 341.497 97.4294 370.803" stroke="url(#paint81_linear_1919_21622)" stroke-width="0.204752" stroke-miterlimit="10"/>
<path d="M1681.03 299.26C1641.81 303.203 1588.77 304.99 1540.82 322.163C1491.7 339.753 1441.86 361.973 1390.05 379.037C1311.94 404.763 1229.44 422.714 1150.83 416.914C1077.23 411.484 1008.06 387.263 932.508 369.325C889.371 359.08 846.522 350.312 802.479 348.444C715.244 344.614 628.188 368.831 540.371 377.462C476.303 383.777 429.495 371.734 379.604 344.962C335.746 321.426 287.238 295.478 235.123 307.614C185.575 319.152 140.381 345.386 95.9735 374.675" stroke="url(#paint82_linear_1919_21622)" stroke-width="0.204752" stroke-miterlimit="10"/>
<path d="M1682.35 294.856C1641.69 300.756 1587.84 303.675 1539.29 321.92C1489.52 340.627 1438.99 363.563 1386.19 380.784C1307.79 406.671 1224.47 423.723 1145.56 416.325C1071.95 409.424 1003.36 383.177 927.769 365.24C884.79 355.036 841.908 346.982 798 345.522C711.092 342.504 624.469 366.212 537.032 374.762C473.383 381.002 425.534 369.952 375.055 344.251C330.982 321.812 282.93 296.122 231.349 309.508C182.49 322.187 138.431 349.287 94.5155 378.563" stroke="url(#paint83_linear_1919_21622)" stroke-width="0.204752" stroke-miterlimit="10"/>
<path d="M1683.68 290.444C1641.58 298.296 1586.95 302.432 1537.77 321.668C1487.39 341.572 1436.08 365.046 1382.32 382.526C1303.58 408.429 1219.5 424.735 1140.28 415.734C1066.66 407.367 998.67 379.087 923.029 361.15C880.204 350.988 837.292 343.651 793.516 342.6C706.938 340.394 620.744 363.588 533.688 372.057C470.458 378.224 421.571 368.158 370.5 343.536C326.213 322.186 278.611 296.758 227.57 311.395C179.398 325.213 136.471 353.18 93.0517 382.447" stroke="url(#paint84_linear_1919_21622)" stroke-width="0.204752" stroke-miterlimit="10"/>
<path d="M1685 286.034C1641.46 295.841 1586.02 301.107 1536.24 321.418C1485.2 342.432 1433.17 366.534 1378.46 384.265C1299.36 410.185 1214.52 425.749 1135 415.138C1061.36 405.312 993.97 374.994 918.29 357.053C875.624 346.933 832.678 340.311 789.038 339.667C702.786 338.274 617.025 360.959 530.349 369.346C467.538 375.439 417.618 366.347 365.947 342.815C321.449 322.543 274.29 297.384 223.796 313.279C176.308 328.229 134.521 357.07 91.5937 386.324" stroke="url(#paint85_linear_1919_21622)" stroke-width="0.204752" stroke-miterlimit="10"/>
<path d="M1686.32 281.627C1641.34 293.388 1585.08 299.782 1534.71 321.172C1483.02 343.299 1430.25 368.023 1374.59 386.013C1295.14 411.949 1209.54 426.775 1129.71 414.55C1056.07 403.269 989.269 370.91 913.542 352.966C871.03 342.89 828.06 336.983 784.55 336.743C698.625 336.162 613.297 358.334 527.001 366.64C464.608 372.658 413.655 364.536 361.389 342.094C316.68 322.9 269.959 298.003 220.013 315.164C173.2 331.246 132.553 360.965 90.122 390.206" stroke="url(#paint86_linear_1919_21622)" stroke-width="0.204752" stroke-miterlimit="10"/>
<path d="M1687.65 277.21C1641.22 290.926 1584.15 298.45 1533.19 320.915C1480.84 344.152 1427.34 369.504 1370.72 387.749C1290.93 413.702 1204.56 427.797 1124.44 413.95C1050.78 401.218 984.58 366.81 908.806 348.866C866.454 338.832 823.449 333.639 780.075 333.808C694.477 334.039 609.581 355.701 523.666 363.926C461.692 369.87 409.71 362.706 356.843 341.37C311.928 323.242 265.641 298.618 216.243 317.042C170.114 334.247 130.606 364.849 88.6718 394.077" stroke="url(#paint87_linear_1919_21622)" stroke-width="0.204752" stroke-miterlimit="10"/>
<path d="M1688.98 272.799C1641.11 288.468 1583.22 297.121 1531.67 320.664C1478.67 345.011 1424.43 370.988 1366.86 389.489C1286.72 415.454 1199.58 428.83 1119.16 413.353C1045.47 399.175 979.881 362.718 904.064 344.774C861.865 334.781 818.832 330.302 775.589 330.879C690.321 331.919 605.855 353.076 520.319 361.215C458.764 367.085 405.753 360.871 352.282 340.649C307.16 323.579 261.303 299.229 212.457 318.926C166.999 337.252 128.644 368.74 87.1972 397.958" stroke="url(#paint88_linear_1919_21622)" stroke-width="0.204752" stroke-miterlimit="10"/>
<path d="M1690.3 268.394C1640.98 286.018 1582.29 295.801 1530.14 320.419C1476.49 345.876 1421.52 372.482 1362.99 391.237C1282.5 417.219 1194.59 429.872 1113.88 412.77C1040.17 397.148 975.186 358.634 899.322 340.691C857.282 330.743 814.214 326.978 771.107 327.963C686.166 329.815 602.132 350.459 516.977 358.521C455.841 364.317 401.805 359.046 347.73 339.944C302.401 323.929 256.969 299.857 208.684 320.823C163.897 340.27 126.691 372.647 85.7403 401.848" stroke="url(#paint89_linear_1919_21622)" stroke-width="0.204752" stroke-miterlimit="10"/>
<path d="M1691.62 263.982C1640.86 283.559 1581.35 294.471 1528.61 320.168C1474.3 346.734 1418.6 373.965 1359.12 392.976C1278.28 418.974 1189.59 430.912 1108.6 412.172C1034.86 395.11 970.479 354.541 894.573 336.593C852.687 326.687 809.59 323.636 766.618 325.03C682.003 327.694 598.403 347.828 513.624 355.809C452.906 361.531 397.841 357.191 343.166 339.218C297.63 324.25 252.62 300.459 204.896 322.703C160.775 343.265 124.726 376.532 84.2676 405.721" stroke="url(#paint90_linear_1919_21622)" stroke-width="0.204752" stroke-miterlimit="10"/>
<path d="M1692.94 259.57C1640.75 281.103 1580.42 293.144 1527.08 319.912C1472.13 347.588 1415.69 375.447 1355.25 394.714C1274.06 420.728 1184.59 431.951 1103.32 411.574C1029.54 393.077 965.779 350.443 889.826 332.495C848.099 322.631 804.968 320.298 762.132 322.096C677.848 325.572 594.676 345.194 510.277 353.092C449.979 358.745 393.888 355.325 338.61 338.492C292.862 324.563 248.274 301.057 201.114 324.578C157.656 346.257 122.764 380.414 82.8017 409.593" stroke="url(#paint91_linear_1919_21622)" stroke-width="0.204752" stroke-miterlimit="10"/>
<path d="M1694.27 255.155C1640.63 278.641 1579.49 291.811 1525.56 319.658C1469.94 348.443 1412.77 376.932 1351.39 396.453C1269.85 422.484 1179.59 432.999 1098.04 410.977C1024.23 391.048 961.084 346.35 885.084 328.403C843.511 318.584 800.356 316.961 757.646 319.167C673.688 323.456 590.954 342.568 506.931 350.385C447.051 355.963 389.932 353.46 334.049 337.774C288.095 324.877 243.919 301.66 197.333 326.466C154.533 349.258 120.806 384.312 81.3359 413.474" stroke="url(#paint92_linear_1919_21622)" stroke-width="0.204752" stroke-miterlimit="10"/>
<path d="M1695.59 250.76C1640.51 276.201 1578.56 290.501 1524.03 319.423C1467.77 349.322 1409.86 378.431 1347.52 398.208C1265.64 424.255 1174.53 434.208 1092.76 410.4C1018.87 389.169 956.385 342.277 880.346 324.326C838.932 314.548 795.743 313.644 753.168 316.258C669.537 321.359 587.236 339.961 503.593 347.693C444.132 353.198 385.983 351.595 329.501 337.072C283.336 325.199 239.568 302.278 193.56 328.369C151.414 352.271 118.853 388.222 79.879 417.374" stroke="url(#paint93_linear_1919_21622)" stroke-width="0.204752" stroke-miterlimit="10"/>
<path d="M1696.92 246.346C1640.4 273.744 1577.63 289.169 1522.51 319.17C1465.59 350.178 1406.95 379.916 1343.66 399.948C1261.43 426.012 1169.55 435.192 1087.48 409.804C1013.57 387.084 951.695 338.181 875.609 320.23C834.349 310.495 791.131 310.304 748.692 313.326C665.387 319.239 583.518 337.329 500.256 344.983C441.214 350.414 382.032 349.708 324.954 336.352C278.573 325.499 235.175 302.825 189.788 330.251C148.252 355.215 116.905 392.109 78.4229 421.249" stroke="url(#paint94_linear_1919_21622)" stroke-width="0.204752" stroke-miterlimit="10"/>
<path d="M1698.24 241.933C1640.28 271.283 1576.69 287.841 1520.99 318.917C1463.41 351.035 1404.04 381.398 1339.8 401.689C1257.21 427.77 1164.57 436.181 1082.21 409.209C1008.27 384.996 946.995 334.09 870.866 316.136C829.765 306.445 786.513 306.969 744.21 310.395C661.236 317.121 579.796 334.701 496.914 342.27C438.291 347.626 378.075 347.806 320.397 335.624C273.801 325.784 230.846 303.464 186.007 332.129C145.15 358.248 114.943 395.997 76.957 425.12" stroke="url(#paint95_linear_1919_21622)" stroke-width="0.204752" stroke-miterlimit="10"/>
</g>
<g opacity="0.13">
<g filter="url(#filter9_f_1919_21622)">
<ellipse cx="-23.5221" cy="1479.01" rx="160.341" ry="134.125" transform="rotate(-4.0801 -23.5221 1479.01)" fill="#B4169F" fill-opacity="0.61"/>
</g>
<g filter="url(#filter10_f_1919_21622)">
<ellipse cx="942.309" cy="1620.52" rx="160.341" ry="134.125" transform="rotate(-4.0801 942.309 1620.52)" fill="#B4169F" fill-opacity="0.61"/>
</g>
<g filter="url(#filter11_f_1919_21622)">
<ellipse cx="96.7298" cy="1435.61" rx="98.4272" ry="82.3965" transform="rotate(-4.0801 96.7298 1435.61)" fill="#B4169F"/>
</g>
<g filter="url(#filter12_f_1919_21622)">
<ellipse cx="1015.2" cy="1906.11" rx="139.703" ry="116.759" transform="rotate(-4.0801 1015.2 1906.11)" fill="#2CEFFF"/>
</g>
<g filter="url(#filter13_f_1919_21622)">
<ellipse cx="609.856" cy="1433.46" rx="139.703" ry="116.759" transform="rotate(-4.0801 609.856 1433.46)" fill="#2CEFFF"/>
</g>
<g filter="url(#filter14_f_1919_21622)">
<ellipse cx="1031.18" cy="1483.05" rx="98.4272" ry="82.3965" transform="rotate(-4.0801 1031.18 1483.05)" fill="#B4169F"/>
</g>
<g filter="url(#filter15_f_1919_21622)">
<ellipse cx="1197.7" cy="1909.76" rx="98.4272" ry="82.3965" transform="rotate(-4.0801 1197.7 1909.76)" fill="#2CEFFF"/>
</g>
<g filter="url(#filter16_f_1919_21622)">
<ellipse cx="792.352" cy="1437.11" rx="98.4272" ry="82.3965" transform="rotate(-4.0801 792.352 1437.11)" fill="#2CEFFF"/>
</g>
<g filter="url(#filter17_f_1919_21622)">
<ellipse cx="1252.5" cy="2054.73" rx="324.5" ry="234" fill="#402769" fill-opacity="0.27"/>
</g>
</g>
<defs>
<filter id="filter0_f_1919_21622" x="-584.746" y="-426.633" width="1122.45" height="1070.56" filterUnits="userSpaceOnUse" color-interpolation-filters="sRGB">
<feFlood flood-opacity="0" result="BackgroundImageFix"/>
<feBlend mode="normal" in="SourceGraphic" in2="BackgroundImageFix" result="shape"/>
<feGaussianBlur stdDeviation="200.5" result="effect1_foregroundBlur_1919_21622"/>
</filter>
<filter id="filter1_f_1919_21622" x="381.085" y="-285.122" width="1122.45" height="1070.56" filterUnits="userSpaceOnUse" color-interpolation-filters="sRGB">
<feFlood flood-opacity="0" result="BackgroundImageFix"/>
<feBlend mode="normal" in="SourceGraphic" in2="BackgroundImageFix" result="shape"/>
<feGaussianBlur stdDeviation="200.5" result="effect1_foregroundBlur_1919_21622"/>
</filter>
<filter id="filter2_f_1919_21622" x="-402.626" y="-418.242" width="998.712" height="966.98" filterUnits="userSpaceOnUse" color-interpolation-filters="sRGB">
<feFlood flood-opacity="0" result="BackgroundImageFix"/>
<feBlend mode="normal" in="SourceGraphic" in2="BackgroundImageFix" result="shape"/>
<feGaussianBlur stdDeviation="200.5" result="effect1_foregroundBlur_1919_21622"/>
</filter>
<filter id="filter3_f_1919_21622" x="275.603" y="-181.149" width="1479.2" height="1433.79" filterUnits="userSpaceOnUse" color-interpolation-filters="sRGB">
<feFlood flood-opacity="0" result="BackgroundImageFix"/>
<feBlend mode="normal" in="SourceGraphic" in2="BackgroundImageFix" result="shape"/>
<feGaussianBlur stdDeviation="300" result="effect1_foregroundBlur_1919_21622"/>
</filter>
<filter id="filter4_f_1919_21622" x="-129.745" y="-653.797" width="1479.2" height="1433.79" filterUnits="userSpaceOnUse" color-interpolation-filters="sRGB">
<feFlood flood-opacity="0" result="BackgroundImageFix"/>
<feBlend mode="normal" in="SourceGraphic" in2="BackgroundImageFix" result="shape"/>
<feGaussianBlur stdDeviation="300" result="effect1_foregroundBlur_1919_21622"/>
</filter>
<filter id="filter5_f_1919_21622" x="531.824" y="-370.806" width="998.712" height="966.98" filterUnits="userSpaceOnUse" color-interpolation-filters="sRGB">
<feFlood flood-opacity="0" result="BackgroundImageFix"/>
<feBlend mode="normal" in="SourceGraphic" in2="BackgroundImageFix" result="shape"/>
<feGaussianBlur stdDeviation="200.5" result="effect1_foregroundBlur_1919_21622"/>
</filter>
<filter id="filter6_f_1919_21622" x="698.343" y="55.9043" width="998.712" height="966.98" filterUnits="userSpaceOnUse" color-interpolation-filters="sRGB">
<feFlood flood-opacity="0" result="BackgroundImageFix"/>
<feBlend mode="normal" in="SourceGraphic" in2="BackgroundImageFix" result="shape"/>
<feGaussianBlur stdDeviation="200.5" result="effect1_foregroundBlur_1919_21622"/>
</filter>
<filter id="filter7_f_1919_21622" x="292.996" y="-416.743" width="998.712" height="966.98" filterUnits="userSpaceOnUse" color-interpolation-filters="sRGB">
<feFlood flood-opacity="0" result="BackgroundImageFix"/>
<feBlend mode="normal" in="SourceGraphic" in2="BackgroundImageFix" result="shape"/>
<feGaussianBlur stdDeviation="200.5" result="effect1_foregroundBlur_1919_21622"/>
</filter>
<filter id="filter8_f_1919_21622" x="577" y="99.3662" width="1351" height="1170" filterUnits="userSpaceOnUse" color-interpolation-filters="sRGB">
<feFlood flood-opacity="0" result="BackgroundImageFix"/>
<feBlend mode="normal" in="SourceGraphic" in2="BackgroundImageFix" result="shape"/>
<feGaussianBlur stdDeviation="175.5" result="effect1_foregroundBlur_1919_21622"/>
</filter>
<filter id="filter9_f_1919_21622" x="-584.746" y="943.733" width="1122.45" height="1070.56" filterUnits="userSpaceOnUse" color-interpolation-filters="sRGB">
<feFlood flood-opacity="0" result="BackgroundImageFix"/>
<feBlend mode="normal" in="SourceGraphic" in2="BackgroundImageFix" result="shape"/>
<feGaussianBlur stdDeviation="200.5" result="effect1_foregroundBlur_1919_21622"/>
</filter>
<filter id="filter10_f_1919_21622" x="381.085" y="1085.24" width="1122.45" height="1070.56" filterUnits="userSpaceOnUse" color-interpolation-filters="sRGB">
<feFlood flood-opacity="0" result="BackgroundImageFix"/>
<feBlend mode="normal" in="SourceGraphic" in2="BackgroundImageFix" result="shape"/>
<feGaussianBlur stdDeviation="200.5" result="effect1_foregroundBlur_1919_21622"/>
</filter>
<filter id="filter11_f_1919_21622" x="-402.626" y="952.124" width="998.712" height="966.98" filterUnits="userSpaceOnUse" color-interpolation-filters="sRGB">
<feFlood flood-opacity="0" result="BackgroundImageFix"/>
<feBlend mode="normal" in="SourceGraphic" in2="BackgroundImageFix" result="shape"/>
<feGaussianBlur stdDeviation="200.5" result="effect1_foregroundBlur_1919_21622"/>
</filter>
<filter id="filter12_f_1919_21622" x="275.603" y="1189.22" width="1479.2" height="1433.79" filterUnits="userSpaceOnUse" color-interpolation-filters="sRGB">
<feFlood flood-opacity="0" result="BackgroundImageFix"/>
<feBlend mode="normal" in="SourceGraphic" in2="BackgroundImageFix" result="shape"/>
<feGaussianBlur stdDeviation="300" result="effect1_foregroundBlur_1919_21622"/>
</filter>
<filter id="filter13_f_1919_21622" x="-129.745" y="716.569" width="1479.2" height="1433.79" filterUnits="userSpaceOnUse" color-interpolation-filters="sRGB">
<feFlood flood-opacity="0" result="BackgroundImageFix"/>
<feBlend mode="normal" in="SourceGraphic" in2="BackgroundImageFix" result="shape"/>
<feGaussianBlur stdDeviation="300" result="effect1_foregroundBlur_1919_21622"/>
</filter>
<filter id="filter14_f_1919_21622" x="531.824" y="999.561" width="998.712" height="966.98" filterUnits="userSpaceOnUse" color-interpolation-filters="sRGB">
<feFlood flood-opacity="0" result="BackgroundImageFix"/>
<feBlend mode="normal" in="SourceGraphic" in2="BackgroundImageFix" result="shape"/>
<feGaussianBlur stdDeviation="200.5" result="effect1_foregroundBlur_1919_21622"/>
</filter>
<filter id="filter15_f_1919_21622" x="698.343" y="1426.27" width="998.712" height="966.98" filterUnits="userSpaceOnUse" color-interpolation-filters="sRGB">
<feFlood flood-opacity="0" result="BackgroundImageFix"/>
<feBlend mode="normal" in="SourceGraphic" in2="BackgroundImageFix" result="shape"/>
<feGaussianBlur stdDeviation="200.5" result="effect1_foregroundBlur_1919_21622"/>
</filter>
<filter id="filter16_f_1919_21622" x="292.996" y="953.623" width="998.712" height="966.98" filterUnits="userSpaceOnUse" color-interpolation-filters="sRGB">
<feFlood flood-opacity="0" result="BackgroundImageFix"/>
<feBlend mode="normal" in="SourceGraphic" in2="BackgroundImageFix" result="shape"/>
<feGaussianBlur stdDeviation="200.5" result="effect1_foregroundBlur_1919_21622"/>
</filter>
<filter id="filter17_f_1919_21622" x="577" y="1469.73" width="1351" height="1170" filterUnits="userSpaceOnUse" color-interpolation-filters="sRGB">
<feFlood flood-opacity="0" result="BackgroundImageFix"/>
<feBlend mode="normal" in="SourceGraphic" in2="BackgroundImageFix" result="shape"/>
<feGaussianBlur stdDeviation="175.5" result="effect1_foregroundBlur_1919_21622"/>
</filter>
<linearGradient id="paint0_linear_1919_21622" x1="2566.12" y1="988.362" x2="2393.75" y2="-138.437" gradientUnits="userSpaceOnUse">
<stop offset="0.567708" stop-color="#B264F7"/>
<stop offset="0.791667" stop-color="#3A68F4"/>
<stop offset="1" stop-color="#35A8FB"/>
</linearGradient>
<linearGradient id="paint1_linear_1919_21622" x1="2578.69" y1="957.078" x2="2426.22" y2="-106.809" gradientUnits="userSpaceOnUse">
<stop offset="0.567708" stop-color="#B264F7"/>
<stop offset="0.791667" stop-color="#3A68F4"/>
<stop offset="1" stop-color="#35A8FB"/>
</linearGradient>
<linearGradient id="paint2_linear_1919_21622" x1="2591.94" y1="925.924" x2="2458.04" y2="-74.8624" gradientUnits="userSpaceOnUse">
<stop offset="0.567708" stop-color="#B264F7"/>
<stop offset="0.791667" stop-color="#3A68F4"/>
<stop offset="1" stop-color="#35A8FB"/>
</linearGradient>
<linearGradient id="paint3_linear_1919_21622" x1="2605.79" y1="898.85" x2="2487.59" y2="-44.8595" gradientUnits="userSpaceOnUse">
<stop offset="0.567708" stop-color="#B264F7"/>
<stop offset="0.791667" stop-color="#3A68F4"/>
<stop offset="1" stop-color="#35A8FB"/>
</linearGradient>
<linearGradient id="paint4_linear_1919_21622" x1="2620.35" y1="896.019" x2="2507.81" y2="-28.0331" gradientUnits="userSpaceOnUse">
<stop offset="0.567708" stop-color="#B264F7"/>
<stop offset="0.791667" stop-color="#3A68F4"/>
<stop offset="1" stop-color="#35A8FB"/>
</linearGradient>
<linearGradient id="paint5_linear_1919_21622" x1="2635.32" y1="893.329" x2="2528.18" y2="-11.476" gradientUnits="userSpaceOnUse">
<stop offset="0.567708" stop-color="#B264F7"/>
<stop offset="0.791667" stop-color="#3A68F4"/>
<stop offset="1" stop-color="#35A8FB"/>
</linearGradient>
<linearGradient id="paint6_linear_1919_21622" x1="2650.64" y1="890.895" x2="2548.58" y2="4.63142" gradientUnits="userSpaceOnUse">
<stop offset="0.567708" stop-color="#B264F7"/>
<stop offset="0.791667" stop-color="#3A68F4"/>
<stop offset="1" stop-color="#35A8FB"/>
</linearGradient>
<linearGradient id="paint7_linear_1919_21622" x1="2666.29" y1="888.716" x2="2568.96" y2="20.2206" gradientUnits="userSpaceOnUse">
<stop offset="0.567708" stop-color="#B264F7"/>
<stop offset="0.791667" stop-color="#3A68F4"/>
<stop offset="1" stop-color="#35A8FB"/>
</linearGradient>
<linearGradient id="paint8_linear_1919_21622" x1="2682.21" y1="886.849" x2="2589.29" y2="35.221" gradientUnits="userSpaceOnUse">
<stop offset="0.567708" stop-color="#B264F7"/>
<stop offset="0.791667" stop-color="#3A68F4"/>
<stop offset="1" stop-color="#35A8FB"/>
</linearGradient>
<linearGradient id="paint9_linear_1919_21622" x1="2698.36" y1="885.315" x2="2609.49" y2="49.5506" gradientUnits="userSpaceOnUse">
<stop offset="0.567708" stop-color="#B264F7"/>
<stop offset="0.791667" stop-color="#3A68F4"/>
<stop offset="1" stop-color="#35A8FB"/>
</linearGradient>
<linearGradient id="paint10_linear_1919_21622" x1="2714.74" y1="884.168" x2="2629.57" y2="63.0657" gradientUnits="userSpaceOnUse">
<stop offset="0.567708" stop-color="#B264F7"/>
<stop offset="0.791667" stop-color="#3A68F4"/>
<stop offset="1" stop-color="#35A8FB"/>
</linearGradient>
<linearGradient id="paint11_linear_1919_21622" x1="2731.32" y1="883.482" x2="2649.45" y2="75.6573" gradientUnits="userSpaceOnUse">
<stop offset="0.567708" stop-color="#B264F7"/>
<stop offset="0.791667" stop-color="#3A68F4"/>
<stop offset="1" stop-color="#35A8FB"/>
</linearGradient>
<linearGradient id="paint12_linear_1919_21622" x1="2747.98" y1="883.361" x2="2668.98" y2="87.042" gradientUnits="userSpaceOnUse">
<stop offset="0.567708" stop-color="#B264F7"/>
<stop offset="0.791667" stop-color="#3A68F4"/>
<stop offset="1" stop-color="#35A8FB"/>
</linearGradient>
<linearGradient id="paint13_linear_1919_21622" x1="2764.66" y1="884.3" x2="2687.82" y2="96.1975" gradientUnits="userSpaceOnUse">
<stop offset="0.567708" stop-color="#B264F7"/>
<stop offset="0.791667" stop-color="#3A68F4"/>
<stop offset="1" stop-color="#35A8FB"/>
</linearGradient>
<linearGradient id="paint14_linear_1919_21622" x1="2781.35" y1="886.687" x2="2705.74" y2="102.209" gradientUnits="userSpaceOnUse">
<stop offset="0.567708" stop-color="#B264F7"/>
<stop offset="0.791667" stop-color="#3A68F4"/>
<stop offset="1" stop-color="#35A8FB"/>
</linearGradient>
<linearGradient id="paint15_linear_1919_21622" x1="2798.05" y1="890.779" x2="2722.64" y2="104.622" gradientUnits="userSpaceOnUse">
<stop offset="0.567708" stop-color="#B264F7"/>
<stop offset="0.791667" stop-color="#3A68F4"/>
<stop offset="1" stop-color="#35A8FB"/>
</linearGradient>
<linearGradient id="paint16_linear_1919_21622" x1="2814.75" y1="896.565" x2="2738.54" y2="103.389" gradientUnits="userSpaceOnUse">
<stop offset="0.567708" stop-color="#B264F7"/>
<stop offset="0.791667" stop-color="#3A68F4"/>
<stop offset="1" stop-color="#35A8FB"/>
</linearGradient>
<linearGradient id="paint17_linear_1919_21622" x1="2831.47" y1="903.871" x2="2753.53" y2="98.9079" gradientUnits="userSpaceOnUse">
<stop offset="0.567708" stop-color="#B264F7"/>
<stop offset="0.791667" stop-color="#3A68F4"/>
<stop offset="1" stop-color="#35A8FB"/>
</linearGradient>
<linearGradient id="paint18_linear_1919_21622" x1="2848.2" y1="912.396" x2="2767.79" y2="91.8425" gradientUnits="userSpaceOnUse">
<stop offset="0.567708" stop-color="#B264F7"/>
<stop offset="0.791667" stop-color="#3A68F4"/>
<stop offset="1" stop-color="#35A8FB"/>
</linearGradient>
<linearGradient id="paint19_linear_1919_21622" x1="2864.94" y1="921.868" x2="2781.45" y2="82.74" gradientUnits="userSpaceOnUse">
<stop offset="0.567708" stop-color="#B264F7"/>
<stop offset="0.791667" stop-color="#3A68F4"/>
<stop offset="1" stop-color="#35A8FB"/>
</linearGradient>
<linearGradient id="paint20_linear_1919_21622" x1="2881.68" y1="932.1" x2="2794.6" y2="72.0186" gradientUnits="userSpaceOnUse">
<stop offset="0.567708" stop-color="#B264F7"/>
<stop offset="0.791667" stop-color="#3A68F4"/>
<stop offset="1" stop-color="#35A8FB"/>
</linearGradient>
<linearGradient id="paint21_linear_1919_21622" x1="2898.42" y1="942.998" x2="2807.26" y2="59.9196" gradientUnits="userSpaceOnUse">
<stop offset="0.567708" stop-color="#B264F7"/>
<stop offset="0.791667" stop-color="#3A68F4"/>
<stop offset="1" stop-color="#35A8FB"/>
</linearGradient>
<linearGradient id="paint22_linear_1919_21622" x1="2915.17" y1="954.403" x2="2819.54" y2="46.7159" gradientUnits="userSpaceOnUse">
<stop offset="0.567708" stop-color="#B264F7"/>
<stop offset="0.791667" stop-color="#3A68F4"/>
<stop offset="1" stop-color="#35A8FB"/>
</linearGradient>
<linearGradient id="paint23_linear_1919_21622" x1="2931.92" y1="966.251" x2="2831.45" y2="32.6517" gradientUnits="userSpaceOnUse">
<stop offset="0.567708" stop-color="#B264F7"/>
<stop offset="0.791667" stop-color="#3A68F4"/>
<stop offset="1" stop-color="#35A8FB"/>
</linearGradient>
<linearGradient id="paint24_linear_1919_21622" x1="2948.67" y1="978.402" x2="2843.06" y2="17.9053" gradientUnits="userSpaceOnUse">
<stop offset="0.567708" stop-color="#B264F7"/>
<stop offset="0.791667" stop-color="#3A68F4"/>
<stop offset="1" stop-color="#35A8FB"/>
</linearGradient>
<linearGradient id="paint25_linear_1919_21622" x1="2965.43" y1="991.027" x2="2854.26" y2="2.23713" gradientUnits="userSpaceOnUse">
<stop offset="0.567708" stop-color="#B264F7"/>
<stop offset="0.791667" stop-color="#3A68F4"/>
<stop offset="1" stop-color="#35A8FB"/>
</linearGradient>
<linearGradient id="paint26_linear_1919_21622" x1="2982.22" y1="1008.63" x2="2861.82" y2="-23.8773" gradientUnits="userSpaceOnUse">
<stop offset="0.567708" stop-color="#B264F7"/>
<stop offset="0.791667" stop-color="#3A68F4"/>
<stop offset="1" stop-color="#35A8FB"/>
</linearGradient>
<linearGradient id="paint27_linear_1919_21622" x1="2999.01" y1="1026.21" x2="2869.1" y2="-49.8697" gradientUnits="userSpaceOnUse">
<stop offset="0.567708" stop-color="#B264F7"/>
<stop offset="0.791667" stop-color="#3A68F4"/>
<stop offset="1" stop-color="#35A8FB"/>
</linearGradient>
<linearGradient id="paint28_linear_1919_21622" x1="3015.8" y1="1043.81" x2="2876.08" y2="-75.7856" gradientUnits="userSpaceOnUse">
<stop offset="0.567708" stop-color="#B264F7"/>
<stop offset="0.791667" stop-color="#3A68F4"/>
<stop offset="1" stop-color="#35A8FB"/>
</linearGradient>
<linearGradient id="paint29_linear_1919_21622" x1="3032.6" y1="1061.41" x2="2882.78" y2="-101.587" gradientUnits="userSpaceOnUse">
<stop offset="0.567708" stop-color="#B264F7"/>
<stop offset="0.791667" stop-color="#3A68F4"/>
<stop offset="1" stop-color="#35A8FB"/>
</linearGradient>
<linearGradient id="paint30_linear_1919_21622" x1="3049.37" y1="1079.02" x2="2889.2" y2="-127.273" gradientUnits="userSpaceOnUse">
<stop offset="0.567708" stop-color="#B264F7"/>
<stop offset="0.791667" stop-color="#3A68F4"/>
<stop offset="1" stop-color="#35A8FB"/>
</linearGradient>
<linearGradient id="paint31_linear_1919_21622" x1="3066.17" y1="1096.62" x2="2895.36" y2="-152.858" gradientUnits="userSpaceOnUse">
<stop offset="0.567708" stop-color="#B264F7"/>
<stop offset="0.791667" stop-color="#3A68F4"/>
<stop offset="1" stop-color="#35A8FB"/>
</linearGradient>
<linearGradient id="paint32_linear_1919_21622" x1="2320.04" y1="909.324" x2="2134.52" y2="-175.123" gradientUnits="userSpaceOnUse">
<stop offset="0.567708" stop-color="#B264F7"/>
<stop offset="0.791667" stop-color="#3A68F4"/>
<stop offset="1" stop-color="#35A8FB"/>
</linearGradient>
<linearGradient id="paint33_linear_1919_21622" x1="2318.52" y1="886.614" x2="2148.04" y2="-151.398" gradientUnits="userSpaceOnUse">
<stop offset="0.567708" stop-color="#B264F7"/>
<stop offset="0.791667" stop-color="#3A68F4"/>
<stop offset="1" stop-color="#35A8FB"/>
</linearGradient>
<linearGradient id="paint34_linear_1919_21622" x1="2317.01" y1="863.934" x2="2161.03" y2="-127.386" gradientUnits="userSpaceOnUse">
<stop offset="0.567708" stop-color="#B264F7"/>
<stop offset="0.791667" stop-color="#3A68F4"/>
<stop offset="1" stop-color="#35A8FB"/>
</linearGradient>
<linearGradient id="paint35_linear_1919_21622" x1="2315.49" y1="841.268" x2="2173.46" y2="-103.143" gradientUnits="userSpaceOnUse">
<stop offset="0.567708" stop-color="#B264F7"/>
<stop offset="0.791667" stop-color="#3A68F4"/>
<stop offset="1" stop-color="#35A8FB"/>
</linearGradient>
<linearGradient id="paint36_linear_1919_21622" x1="2313.98" y1="818.579" x2="2185.33" y2="-78.6585" gradientUnits="userSpaceOnUse">
<stop offset="0.567708" stop-color="#B264F7"/>
<stop offset="0.791667" stop-color="#3A68F4"/>
<stop offset="1" stop-color="#35A8FB"/>
</linearGradient>
<linearGradient id="paint37_linear_1919_21622" x1="2312.49" y1="800.652" x2="2194.65" y2="-56.42" gradientUnits="userSpaceOnUse">
<stop offset="0.567708" stop-color="#B264F7"/>
<stop offset="0.791667" stop-color="#3A68F4"/>
<stop offset="1" stop-color="#35A8FB"/>
</linearGradient>
<linearGradient id="paint38_linear_1919_21622" x1="2311.02" y1="783.521" x2="2203.26" y2="-34.4356" gradientUnits="userSpaceOnUse">
<stop offset="0.567708" stop-color="#B264F7"/>
<stop offset="0.791667" stop-color="#3A68F4"/>
<stop offset="1" stop-color="#35A8FB"/>
</linearGradient>
<linearGradient id="paint39_linear_1919_21622" x1="2309.56" y1="768.116" x2="2210.13" y2="-15.9075" gradientUnits="userSpaceOnUse">
<stop offset="0.567708" stop-color="#B264F7"/>
<stop offset="0.791667" stop-color="#3A68F4"/>
<stop offset="1" stop-color="#35A8FB"/>
</linearGradient>
<linearGradient id="paint40_linear_1919_21622" x1="2308.11" y1="755.637" x2="2214.51" y2="-3.39328" gradientUnits="userSpaceOnUse">
<stop offset="0.567708" stop-color="#B264F7"/>
<stop offset="0.791667" stop-color="#3A68F4"/>
<stop offset="1" stop-color="#35A8FB"/>
</linearGradient>
<linearGradient id="paint41_linear_1919_21622" x1="2306.66" y1="743.216" x2="2218.7" y2="9.07291" gradientUnits="userSpaceOnUse">
<stop offset="0.567708" stop-color="#B264F7"/>
<stop offset="0.791667" stop-color="#3A68F4"/>
<stop offset="1" stop-color="#35A8FB"/>
</linearGradient>
<linearGradient id="paint42_linear_1919_21622" x1="2305.22" y1="730.862" x2="2222.71" y2="21.4687" gradientUnits="userSpaceOnUse">
<stop offset="0.567708" stop-color="#B264F7"/>
<stop offset="0.791667" stop-color="#3A68F4"/>
<stop offset="1" stop-color="#35A8FB"/>
</linearGradient>
<linearGradient id="paint43_linear_1919_21622" x1="2303.77" y1="718.576" x2="2226.51" y2="33.7439" gradientUnits="userSpaceOnUse">
<stop offset="0.567708" stop-color="#B264F7"/>
<stop offset="0.791667" stop-color="#3A68F4"/>
<stop offset="1" stop-color="#35A8FB"/>
</linearGradient>
<linearGradient id="paint44_linear_1919_21622" x1="2302.33" y1="706.379" x2="2230.13" y2="45.8856" gradientUnits="userSpaceOnUse">
<stop offset="0.567708" stop-color="#B264F7"/>
<stop offset="0.791667" stop-color="#3A68F4"/>
<stop offset="1" stop-color="#35A8FB"/>
</linearGradient>
<linearGradient id="paint45_linear_1919_21622" x1="2300.88" y1="694.286" x2="2233.51" y2="57.863" gradientUnits="userSpaceOnUse">
<stop offset="0.567708" stop-color="#B264F7"/>
<stop offset="0.791667" stop-color="#3A68F4"/>
<stop offset="1" stop-color="#35A8FB"/>
</linearGradient>
<linearGradient id="paint46_linear_1919_21622" x1="2299.44" y1="682.305" x2="2236.7" y2="69.6348" gradientUnits="userSpaceOnUse">
<stop offset="0.567708" stop-color="#B264F7"/>
<stop offset="0.791667" stop-color="#3A68F4"/>
<stop offset="1" stop-color="#35A8FB"/>
</linearGradient>
<linearGradient id="paint47_linear_1919_21622" x1="2298" y1="670.465" x2="2239.64" y2="81.1438" gradientUnits="userSpaceOnUse">
<stop offset="0.567708" stop-color="#B264F7"/>
<stop offset="0.791667" stop-color="#3A68F4"/>
<stop offset="1" stop-color="#35A8FB"/>
</linearGradient>
<linearGradient id="paint48_linear_1919_21622" x1="2296.57" y1="658.791" x2="2242.38" y2="92.341" gradientUnits="userSpaceOnUse">
<stop offset="0.567708" stop-color="#B264F7"/>
<stop offset="0.791667" stop-color="#3A68F4"/>
<stop offset="1" stop-color="#35A8FB"/>
</linearGradient>
<linearGradient id="paint49_linear_1919_21622" x1="2295.12" y1="647.326" x2="2244.83" y2="103.142" gradientUnits="userSpaceOnUse">
<stop offset="0.567708" stop-color="#B264F7"/>
<stop offset="0.791667" stop-color="#3A68F4"/>
<stop offset="1" stop-color="#35A8FB"/>
</linearGradient>
<linearGradient id="paint50_linear_1919_21622" x1="2293.68" y1="636.087" x2="2247.05" y2="113.503" gradientUnits="userSpaceOnUse">
<stop offset="0.567708" stop-color="#B264F7"/>
<stop offset="0.791667" stop-color="#3A68F4"/>
<stop offset="1" stop-color="#35A8FB"/>
</linearGradient>
<linearGradient id="paint51_linear_1919_21622" x1="2292.25" y1="625.115" x2="2249.01" y2="123.273" gradientUnits="userSpaceOnUse">
<stop offset="0.567708" stop-color="#B264F7"/>
<stop offset="0.791667" stop-color="#3A68F4"/>
<stop offset="1" stop-color="#35A8FB"/>
</linearGradient>
<linearGradient id="paint52_linear_1919_21622" x1="2290.82" y1="614.477" x2="2250.69" y2="132.398" gradientUnits="userSpaceOnUse">
<stop offset="0.567708" stop-color="#B264F7"/>
<stop offset="0.791667" stop-color="#3A68F4"/>
<stop offset="1" stop-color="#35A8FB"/>
</linearGradient>
<linearGradient id="paint53_linear_1919_21622" x1="2289.39" y1="604.197" x2="2252.09" y2="140.738" gradientUnits="userSpaceOnUse">
<stop offset="0.567708" stop-color="#B264F7"/>
<stop offset="0.791667" stop-color="#3A68F4"/>
<stop offset="1" stop-color="#35A8FB"/>
</linearGradient>
<linearGradient id="paint54_linear_1919_21622" x1="2287.95" y1="594.316" x2="2253.19" y2="148.235" gradientUnits="userSpaceOnUse">
<stop offset="0.567708" stop-color="#B264F7"/>
<stop offset="0.791667" stop-color="#3A68F4"/>
<stop offset="1" stop-color="#35A8FB"/>
</linearGradient>
<linearGradient id="paint55_linear_1919_21622" x1="2286.53" y1="584.864" x2="2254.03" y2="154.803" gradientUnits="userSpaceOnUse">
<stop offset="0.567708" stop-color="#B264F7"/>
<stop offset="0.791667" stop-color="#3A68F4"/>
<stop offset="1" stop-color="#35A8FB"/>
</linearGradient>
<linearGradient id="paint56_linear_1919_21622" x1="2285.11" y1="575.844" x2="2254.61" y2="160.462" gradientUnits="userSpaceOnUse">
<stop offset="0.567708" stop-color="#B264F7"/>
<stop offset="0.791667" stop-color="#3A68F4"/>
<stop offset="1" stop-color="#35A8FB"/>
</linearGradient>
<linearGradient id="paint57_linear_1919_21622" x1="2283.71" y1="569.227" x2="2254.53" y2="164.08" gradientUnits="userSpaceOnUse">
<stop offset="0.567708" stop-color="#B264F7"/>
<stop offset="0.791667" stop-color="#3A68F4"/>
<stop offset="1" stop-color="#35A8FB"/>
</linearGradient>
<linearGradient id="paint58_linear_1919_21622" x1="2282.43" y1="582.346" x2="2249.95" y2="155.492" gradientUnits="userSpaceOnUse">
<stop offset="0.567708" stop-color="#B264F7"/>
<stop offset="0.791667" stop-color="#3A68F4"/>
<stop offset="1" stop-color="#35A8FB"/>
</linearGradient>
<linearGradient id="paint59_linear_1919_21622" x1="2281.17" y1="596.013" x2="2244.98" y2="146.125" gradientUnits="userSpaceOnUse">
<stop offset="0.567708" stop-color="#B264F7"/>
<stop offset="0.791667" stop-color="#3A68F4"/>
<stop offset="1" stop-color="#35A8FB"/>
</linearGradient>
<linearGradient id="paint60_linear_1919_21622" x1="2279.9" y1="610.62" x2="2239.46" y2="135.84" gradientUnits="userSpaceOnUse">
<stop offset="0.567708" stop-color="#B264F7"/>
<stop offset="0.791667" stop-color="#3A68F4"/>
<stop offset="1" stop-color="#35A8FB"/>
</linearGradient>
<linearGradient id="paint61_linear_1919_21622" x1="2278.66" y1="626.184" x2="2233.38" y2="124.686" gradientUnits="userSpaceOnUse">
<stop offset="0.567708" stop-color="#B264F7"/>
<stop offset="0.791667" stop-color="#3A68F4"/>
<stop offset="1" stop-color="#35A8FB"/>
</linearGradient>
<linearGradient id="paint62_linear_1919_21622" x1="2277.41" y1="642.511" x2="2226.7" y2="112.781" gradientUnits="userSpaceOnUse">
<stop offset="0.567708" stop-color="#B264F7"/>
<stop offset="0.791667" stop-color="#3A68F4"/>
<stop offset="1" stop-color="#35A8FB"/>
</linearGradient>
<linearGradient id="paint63_linear_1919_21622" x1="2276.17" y1="659.531" x2="2219.4" y2="100.197" gradientUnits="userSpaceOnUse">
<stop offset="0.567708" stop-color="#B264F7"/>
<stop offset="0.791667" stop-color="#3A68F4"/>
<stop offset="1" stop-color="#35A8FB"/>
</linearGradient>
<linearGradient id="paint64_linear_1919_21622" x1="2442.83" y1="631.7" x2="2385.39" y2="42.3363" gradientUnits="userSpaceOnUse">
<stop offset="0.567708" stop-color="#B264F7"/>
<stop offset="0.791667" stop-color="#3A68F4"/>
<stop offset="1" stop-color="#35A8FB"/>
</linearGradient>
<linearGradient id="paint65_linear_1919_21622" x1="2445.58" y1="622.216" x2="2391.84" y2="51.8359" gradientUnits="userSpaceOnUse">
<stop offset="0.567708" stop-color="#B264F7"/>
<stop offset="0.791667" stop-color="#3A68F4"/>
<stop offset="1" stop-color="#35A8FB"/>
</linearGradient>
<linearGradient id="paint66_linear_1919_21622" x1="2448.32" y1="612.899" x2="2398.09" y2="61.1261" gradientUnits="userSpaceOnUse">
<stop offset="0.567708" stop-color="#B264F7"/>
<stop offset="0.791667" stop-color="#3A68F4"/>
<stop offset="1" stop-color="#35A8FB"/>
</linearGradient>
<linearGradient id="paint67_linear_1919_21622" x1="2451.06" y1="603.853" x2="2404.13" y2="70.2464" gradientUnits="userSpaceOnUse">
<stop offset="0.567708" stop-color="#B264F7"/>
<stop offset="0.791667" stop-color="#3A68F4"/>
<stop offset="1" stop-color="#35A8FB"/>
</linearGradient>
<linearGradient id="paint68_linear_1919_21622" x1="2453.81" y1="595.225" x2="2409.93" y2="78.978" gradientUnits="userSpaceOnUse">
<stop offset="0.567708" stop-color="#B264F7"/>
<stop offset="0.791667" stop-color="#3A68F4"/>
<stop offset="1" stop-color="#35A8FB"/>
</linearGradient>
<linearGradient id="paint69_linear_1919_21622" x1="2456.56" y1="586.984" x2="2415.5" y2="87.3588" gradientUnits="userSpaceOnUse">
<stop offset="0.567708" stop-color="#B264F7"/>
<stop offset="0.791667" stop-color="#3A68F4"/>
<stop offset="1" stop-color="#35A8FB"/>
</linearGradient>
<linearGradient id="paint70_linear_1919_21622" x1="2459.31" y1="579.205" x2="2420.83" y2="95.332" gradientUnits="userSpaceOnUse">
<stop offset="0.567708" stop-color="#B264F7"/>
<stop offset="0.791667" stop-color="#3A68F4"/>
<stop offset="1" stop-color="#35A8FB"/>
</linearGradient>
<linearGradient id="paint71_linear_1919_21622" x1="2462.08" y1="571.955" x2="2425.93" y2="102.828" gradientUnits="userSpaceOnUse">
<stop offset="0.567708" stop-color="#B264F7"/>
<stop offset="0.791667" stop-color="#3A68F4"/>
<stop offset="1" stop-color="#35A8FB"/>
</linearGradient>
<linearGradient id="paint72_linear_1919_21622" x1="2464.83" y1="565.284" x2="2430.79" y2="109.823" gradientUnits="userSpaceOnUse">
<stop offset="0.567708" stop-color="#B264F7"/>
<stop offset="0.791667" stop-color="#3A68F4"/>
<stop offset="1" stop-color="#35A8FB"/>
</linearGradient>
<linearGradient id="paint73_linear_1919_21622" x1="2467.61" y1="559.263" x2="2435.43" y2="116.313" gradientUnits="userSpaceOnUse">
<stop offset="0.567708" stop-color="#B264F7"/>
<stop offset="0.791667" stop-color="#3A68F4"/>
<stop offset="1" stop-color="#35A8FB"/>
</linearGradient>
<linearGradient id="paint74_linear_1919_21622" x1="2470.38" y1="553.855" x2="2439.86" y2="122.316" gradientUnits="userSpaceOnUse">
<stop offset="0.567708" stop-color="#B264F7"/>
<stop offset="0.791667" stop-color="#3A68F4"/>
<stop offset="1" stop-color="#35A8FB"/>
</linearGradient>
<linearGradient id="paint75_linear_1919_21622" x1="2473.15" y1="549.093" x2="2444.1" y2="127.83" gradientUnits="userSpaceOnUse">
<stop offset="0.567708" stop-color="#B264F7"/>
<stop offset="0.791667" stop-color="#3A68F4"/>
<stop offset="1" stop-color="#35A8FB"/>
</linearGradient>
<linearGradient id="paint76_linear_1919_21622" x1="2475.93" y1="544.947" x2="2448.16" y2="132.9" gradientUnits="userSpaceOnUse">
<stop offset="0.567708" stop-color="#B264F7"/>
<stop offset="0.791667" stop-color="#3A68F4"/>
<stop offset="1" stop-color="#35A8FB"/>
</linearGradient>
<linearGradient id="paint77_linear_1919_21622" x1="2478.71" y1="541.366" x2="2452.05" y2="137.51" gradientUnits="userSpaceOnUse">
<stop offset="0.567708" stop-color="#B264F7"/>
<stop offset="0.791667" stop-color="#3A68F4"/>
<stop offset="1" stop-color="#35A8FB"/>
</linearGradient>
<linearGradient id="paint78_linear_1919_21622" x1="2481.5" y1="538.312" x2="2455.81" y2="141.746" gradientUnits="userSpaceOnUse">
<stop offset="0.567708" stop-color="#B264F7"/>
<stop offset="0.791667" stop-color="#3A68F4"/>
<stop offset="1" stop-color="#35A8FB"/>
</linearGradient>
<linearGradient id="paint79_linear_1919_21622" x1="2484.29" y1="535.728" x2="2459.47" y2="145.645" gradientUnits="userSpaceOnUse">
<stop offset="0.567708" stop-color="#B264F7"/>
<stop offset="0.791667" stop-color="#3A68F4"/>
<stop offset="1" stop-color="#35A8FB"/>
</linearGradient>
<linearGradient id="paint80_linear_1919_21622" x1="2487.08" y1="533.506" x2="2463.01" y2="149.207" gradientUnits="userSpaceOnUse">
<stop offset="0.567708" stop-color="#B264F7"/>
<stop offset="0.791667" stop-color="#3A68F4"/>
<stop offset="1" stop-color="#35A8FB"/>
</linearGradient>
<linearGradient id="paint81_linear_1919_21622" x1="2489.88" y1="531.68" x2="2466.47" y2="152.473" gradientUnits="userSpaceOnUse">
<stop offset="0.567708" stop-color="#B264F7"/>
<stop offset="0.791667" stop-color="#3A68F4"/>
<stop offset="1" stop-color="#35A8FB"/>
</linearGradient>
<linearGradient id="paint82_linear_1919_21622" x1="2492.68" y1="530.657" x2="2469.67" y2="154.4" gradientUnits="userSpaceOnUse">
<stop offset="0.567708" stop-color="#B264F7"/>
<stop offset="0.791667" stop-color="#3A68F4"/>
<stop offset="1" stop-color="#35A8FB"/>
</linearGradient>
<linearGradient id="paint83_linear_1919_21622" x1="2495.51" y1="535.173" x2="2470.81" y2="144.669" gradientUnits="userSpaceOnUse">
<stop offset="0.567708" stop-color="#B264F7"/>
<stop offset="0.791667" stop-color="#3A68F4"/>
<stop offset="1" stop-color="#35A8FB"/>
</linearGradient>
<linearGradient id="paint84_linear_1919_21622" x1="2498.36" y1="539.925" x2="2471.86" y2="134.795" gradientUnits="userSpaceOnUse">
<stop offset="0.567708" stop-color="#B264F7"/>
<stop offset="0.791667" stop-color="#3A68F4"/>
<stop offset="1" stop-color="#35A8FB"/>
</linearGradient>
<linearGradient id="paint85_linear_1919_21622" x1="2501.2" y1="544.889" x2="2472.8" y2="124.809" gradientUnits="userSpaceOnUse">
<stop offset="0.567708" stop-color="#B264F7"/>
<stop offset="0.791667" stop-color="#3A68F4"/>
<stop offset="1" stop-color="#35A8FB"/>
</linearGradient>
<linearGradient id="paint86_linear_1919_21622" x1="2504.04" y1="550.069" x2="2473.63" y2="114.714" gradientUnits="userSpaceOnUse">
<stop offset="0.567708" stop-color="#B264F7"/>
<stop offset="0.791667" stop-color="#3A68F4"/>
<stop offset="1" stop-color="#35A8FB"/>
</linearGradient>
<linearGradient id="paint87_linear_1919_21622" x1="2506.88" y1="555.427" x2="2474.36" y2="104.508" gradientUnits="userSpaceOnUse">
<stop offset="0.567708" stop-color="#B264F7"/>
<stop offset="0.791667" stop-color="#3A68F4"/>
<stop offset="1" stop-color="#35A8FB"/>
</linearGradient>
<linearGradient id="paint88_linear_1919_21622" x1="2509.74" y1="560.958" x2="2475" y2="94.2263" gradientUnits="userSpaceOnUse">
<stop offset="0.567708" stop-color="#B264F7"/>
<stop offset="0.791667" stop-color="#3A68F4"/>
<stop offset="1" stop-color="#35A8FB"/>
</linearGradient>
<linearGradient id="paint89_linear_1919_21622" x1="2512.58" y1="566.658" x2="2475.51" y2="83.8683" gradientUnits="userSpaceOnUse">
<stop offset="0.567708" stop-color="#B264F7"/>
<stop offset="0.791667" stop-color="#3A68F4"/>
<stop offset="1" stop-color="#35A8FB"/>
</linearGradient>
<linearGradient id="paint90_linear_1919_21622" x1="2515.42" y1="572.487" x2="2475.93" y2="73.4394" gradientUnits="userSpaceOnUse">
<stop offset="0.567708" stop-color="#B264F7"/>
<stop offset="0.791667" stop-color="#3A68F4"/>
<stop offset="1" stop-color="#35A8FB"/>
</linearGradient>
<linearGradient id="paint91_linear_1919_21622" x1="2518.27" y1="578.444" x2="2476.24" y2="62.9522" gradientUnits="userSpaceOnUse">
<stop offset="0.567708" stop-color="#B264F7"/>
<stop offset="0.791667" stop-color="#3A68F4"/>
<stop offset="1" stop-color="#35A8FB"/>
</linearGradient>
<linearGradient id="paint92_linear_1919_21622" x1="2521.12" y1="584.53" x2="2476.45" y2="52.4037" gradientUnits="userSpaceOnUse">
<stop offset="0.567708" stop-color="#B264F7"/>
<stop offset="0.791667" stop-color="#3A68F4"/>
<stop offset="1" stop-color="#35A8FB"/>
</linearGradient>
<linearGradient id="paint93_linear_1919_21622" x1="2523.97" y1="590.862" x2="2476.53" y2="41.7613" gradientUnits="userSpaceOnUse">
<stop offset="0.567708" stop-color="#B264F7"/>
<stop offset="0.791667" stop-color="#3A68F4"/>
<stop offset="1" stop-color="#35A8FB"/>
</linearGradient>
<linearGradient id="paint94_linear_1919_21622" x1="2526.83" y1="597.097" x2="2476.55" y2="31.1655" gradientUnits="userSpaceOnUse">
<stop offset="0.567708" stop-color="#B264F7"/>
<stop offset="0.791667" stop-color="#3A68F4"/>
<stop offset="1" stop-color="#35A8FB"/>
</linearGradient>
<linearGradient id="paint95_linear_1919_21622" x1="2529.68" y1="603.428" x2="2476.47" y2="20.535" gradientUnits="userSpaceOnUse">
<stop offset="0.567708" stop-color="#B264F7"/>
<stop offset="0.791667" stop-color="#3A68F4"/>
<stop offset="1" stop-color="#35A8FB"/>
</linearGradient>
</defs>
</svg>
